<?xml version="1.0" encoding="UTF-8" standalone="no"?>
<svg
   xmlns:dc="http://purl.org/dc/elements/1.1/"
   xmlns:cc="http://creativecommons.org/ns#"
   xmlns:rdf="http://www.w3.org/1999/02/22-rdf-syntax-ns#"
   xmlns:svg="http://www.w3.org/2000/svg"
   xmlns="http://www.w3.org/2000/svg"
   xmlns:sodipodi="http://sodipodi.sourceforge.net/DTD/sodipodi-0.dtd"
   xmlns:inkscape="http://www.inkscape.org/namespaces/inkscape"
   width="193.62328"
   height="519.49908"
   style="overflow:visible"
   version="1.1"
   id="svg1808"
   sodipodi:docname="perso12.svg"
   inkscape:version="0.92.5 (2060ec1f9f, 2020-04-08)">
  <metadata
     id="metadata1814">
    <rdf:RDF>
      <cc:Work
         rdf:about="">
        <dc:format>image/svg+xml</dc:format>
        <dc:type
           rdf:resource="http://purl.org/dc/dcmitype/StillImage" />
        <dc:title></dc:title>
      </cc:Work>
    </rdf:RDF>
  </metadata>
  <defs
     id="defs1812" />
  <sodipodi:namedview
     pagecolor="#ffffff"
     bordercolor="#666666"
     borderopacity="1"
     objecttolerance="10"
     gridtolerance="10"
     guidetolerance="10"
     inkscape:pageopacity="0"
     inkscape:pageshadow="2"
     inkscape:window-width="640"
     inkscape:window-height="480"
     id="namedview1810"
     showgrid="false"
     inkscape:zoom="0.39333333"
     inkscape:cx="153.91616"
     inkscape:cy="260.6837"
     inkscape:window-x="42"
     inkscape:window-y="25"
     inkscape:window-maximized="0"
     inkscape:current-layer="svg1808" />
  <svg
     viewBox="0 0 500 600"
     preserveAspectRatio="xMidYMin slice"
     width="500"
     height="600"
     style="overflow:visible"
     version="1.1"
     id="svg1806"
     transform="translate(-96.083838,-41.184617)">
    <g
       id="g1804">
      <svg
         width="500"
         height="600"
         style="overflow:visible"
         version="1.1"
         id="svg1718">
        <svg
           viewBox="0 0 500 600"
           preserveAspectRatio="xMidYMin slice"
           width="500"
           height="600"
           style="overflow:visible"
           version="1.1"
           id="svg1716">
          <g
             id="g1714">
            <svg
               viewBox="0 0 500 600"
               version="1.1"
               id="svg1712"
               width="100%"
               height="100%">
              <path
                 d="m 172.2,66.4 h -4.7 c -6.6,0.2 -13.1,1 -19.6,1.8 -6.5,0.8 -11.5,1.9 -13.5,7.5 0,0.1 -0.1,0.2 -0.1,0.3 a 2.9,2.9 0 0 0 -0.2,0.9 c -1.1,5 0.1,10.2 0.8,15 l 0.3,1.7 c 0.4,2.8 0.6,5.7 0.9,8.6 0.5,5.8 1.3,11.8 4,17.1 6.9,13.3 30.6,20 40.6,6.7 4.3,-5.8 6.3,-13.4 6.9,-20.5 0.2,-3 0.4,-5.9 0.5,-8.9 0.1,-3 0.1,-4.4 0,-6.6 a 39.3,39.3 0 0 0 -2.9,-14 24.2,24.2 0 0 0 -3.6,-5.4 c -2.4,-2.7 -6,-3.8 -9.4,-4.2 z"
                 id="path1668"
                 inkscape:connector-curvature="0"
                 style="fill:#e9af80;stroke:#000000;stroke-linecap:round;stroke-linejoin:round" />
              <path
                 d="m 131.2,100.1 a 4.3,4.3 0 0 1 -1.6,-2.4 11.5,11.5 0 0 1 -0.8,-4.1 5.9,5.9 0 0 1 1.6,-3.7 l 1.1,-0.8 a 6.1,6.1 0 0 1 2.4,-0.3 h 0.5 l 0.2,0.4 a 60.1,60.1 0 0 0 1,8.4 c 0.2,1 0.7,1.8 -0.3,2.5 a 4.6,4.6 0 0 1 -4.1,0 z"
                 id="path1670"
                 inkscape:connector-curvature="0"
                 style="fill:#e9af80;stroke:#000000;stroke-linecap:round;stroke-linejoin:round" />
              <path
                 d="m 191.2,95.7 a 2,2 0 0 0 0.6,-1.1 17.6,17.6 0 0 0 0.3,-3.3 9.5,9.5 0 0 0 -0.5,-3.3 4.8,4.8 0 0 0 -2.2,-3.1 l -0.9,-0.2 c -0.2,0 -0.7,-0.1 -0.9,0.1 -0.2,0.2 -0.1,0.3 -0.1,0.4 0.2,1.7 0.3,3.4 0.4,5 0.1,1.6 0.1,2.7 0.1,4 0,1.3 0.1,1.8 0.9,2.1 a 1.9,1.9 0 0 0 2.3,-0.6 z"
                 id="path1672"
                 inkscape:connector-curvature="0"
                 style="fill:#e9af80;stroke:#000000;stroke-linecap:round;stroke-linejoin:round" />
              <path
                 d="m 127.8,65.7 c -1.1,7.3 -0.1,14.9 1.8,22.3 0.5,1.6 1.3,3.8 2.7,4.9 a 1.7,1.7 0 0 0 2.9,-1.1 c 0.5,-1.5 -0.4,-3 -0.6,-4.5 -0.4,-3.8 0,-8.3 2.9,-11.1 a 10.7,10.7 0 0 0 2.6,-2.6 c 0.7,-1.1 1.1,-2.3 2.4,-2.8 1.3,-0.5 3.3,-0.6 4.8,-1.1 1.5,-0.5 4.3,-1.5 6.5,-1.9 2.2,-0.4 3.7,0.3 5.6,0.5 1.9,0.2 4.7,-0.1 7.1,-0.1 2.4,0 5.8,-0.3 8.7,0.2 a 10.2,10.2 0 0 1 5.7,3.4 40,40 0 0 1 4.5,5.5 c 1.3,2.2 1.5,4.4 1.8,6.9 0.1,0.5 0.1,3.9 0.8,4.2 0.7,0.3 2.1,-3.3 2.2,-4 a 32.1,32.1 0 0 0 0.9,-6.1 c 0.3,-3.9 0.2,-8 -1.3,-11.7 -1.5,-3.7 -3.6,-11.2 -8.4,-14.4 -2.8,-1.9 -5.2,-5.2 -8.3,-6.4 -3.1,-1.2 -5.4,-1.1 -8,-1.9 -4.3,-1.3 -8.7,-2.7 -13.3,-2.7 a 19,19 0 0 0 -8.2,1.5 11.4,11.4 0 0 0 -3.7,3.2 c -0.8,1.1 -0.7,2.3 -1.6,3.3 -0.9,1 -2.7,0.9 -4,1.6 -1.3,0.7 -2.2,2.4 -2.8,3.6 a 33.4,33.4 0 0 0 -3.7,11.3 z"
                 id="path1674"
                 inkscape:connector-curvature="0" />
              <path
                 d="m 173.6,83.3 a 3.1,3.1 0 0 0 -2,0.9 c -0.5,0.6 -0.3,1.4 -0.2,2.2 l 0.8,4.3 a 11.7,11.7 0 0 0 0.9,3.2 6.7,6.7 0 0 0 8,3.4 8.6,8.6 0 0 0 5.1,-6 c 0.7,-2.4 1.8,-8 -1,-8.7 -2.8,-0.7 -8.3,0.4 -11.6,0.7 z"
                 stroke-miterlimit="10"
                 id="path1676"
                 inkscape:connector-curvature="0"
                 style="fill:none;stroke:#000000;stroke-miterlimit:10" />
              <path
                 d="m 150.7,85.1 a 2.3,2.3 0 0 0 -2,0.8 2.8,2.8 0 0 0 -0.3,2.2 l 0.8,4.3 a 11.7,11.7 0 0 0 0.9,3.2 6.8,6.8 0 0 0 8.1,3.4 8.7,8.7 0 0 0 5,-6 c 0.7,-2.3 1.8,-8 -1,-8.7 -2.8,-0.7 -8.2,0.4 -11.5,0.8 z"
                 stroke-miterlimit="10"
                 id="path1678"
                 inkscape:connector-curvature="0"
                 style="fill:none;stroke:#000000;stroke-miterlimit:10" />
              <path
                 d="m 171,85 -1.7,0.2 -5.3,0.4 h -0.2"
                 stroke-miterlimit="10"
                 id="path1680"
                 inkscape:connector-curvature="0"
                 style="fill:none;stroke:#000000;stroke-miterlimit:10" />
              <path
                 d="M 148.3,88.2 132.9,87.9"
                 stroke-miterlimit="10"
                 id="path1682"
                 inkscape:connector-curvature="0"
                 style="fill:none;stroke:#000000;stroke-linecap:round;stroke-miterlimit:10" />
              <path
                 d="m 168.2,108.3 a 10.5,10.5 0 0 0 3,-1.5 3.1,3.1 0 0 0 1.1,-0.9 c 1.2,-1.4 0.9,-3.5 0.3,-5.3 A 37.3,37.3 0 0 0 171,97.1"
                 stroke-miterlimit="10"
                 id="path1684"
                 inkscape:connector-curvature="0"
                 style="fill:none;stroke:#000000;stroke-miterlimit:10" />
              <path
                 d="m 186.5,83.6 3.6,1.1"
                 stroke-miterlimit="10"
                 id="path1686"
                 inkscape:connector-curvature="0"
                 style="fill:none;stroke:#000000;stroke-linecap:round;stroke-miterlimit:10" />
              <path
                 d="m 154.7,114 c 1.9,-2.4 5,-3 8,-3.2 5.6,-0.4 11.3,-0.2 17,-0.1 1.3,0 3,-0.2 4,1 1,1.2 1,4.6 0.4,6.7 a 19.9,19.9 0 0 1 -14.3,14 c -3.2,0.8 -6.8,0.4 -10.1,0.1 -3.3,-0.3 -5.1,-1.2 -6.4,-3.6 -1.3,-2.4 -0.4,-8.1 0.1,-11.8 a 7.3,7.3 0 0 1 1.3,-3.1 z m 7.1,2.2 a 0.8,0.8 0 0 0 -0.2,0.5 c -0.2,0.8 0.7,1.9 1.5,2.2 2.9,1.5 6.6,1.2 9.7,0.6 a 5.9,5.9 0 0 0 3.7,-2.2 2.4,2.4 0 0 0 0.3,-2 c -0.7,-1.7 -3.5,-0.7 -4.8,-0.4 a 20.9,20.9 0 0 1 -5.6,0.6 10.6,10.6 0 0 0 -2.5,-0.2 2.9,2.9 0 0 0 -2.1,0.9 z"
                 id="path1688"
                 inkscape:connector-curvature="0"
                 style="opacity:0.45" />
              <path
                 d="m 162.6,116.5 a 0.9,0.9 0 0 0 -0.3,1 2.2,2.2 0 0 0 0.9,0.7 14.8,14.8 0 0 0 8.1,0.6 6.7,6.7 0 0 0 4.2,-1.8 c 0.5,-0.5 0.9,-1.3 0.4,-1.8 -0.5,-0.5 -1.2,-0.2 -1.7,-0.2 l -2.5,0.5 a 25.2,25.2 0 0 1 -4.7,0.6 c -1.3,0 -3.1,-0.7 -4.3,0.2 z"
                 id="path1690"
                 inkscape:connector-curvature="0"
                 style="opacity:0.5;fill:#5e2f2f" />
              <path
                 d="m 148.6,80.8 a 6.2,6.2 0 0 0 2.5,1.4 9.3,9.3 0 0 0 4.7,0.2 36.9,36.9 0 0 0 4.5,-1.1 c 0.7,-0.2 1.9,-0.6 1.8,-1.4 a 1.1,1.1 0 0 0 -0.3,-0.8 c -0.2,-0.3 -0.4,-0.6 -0.8,-0.6 l -0.6,0.3 a 15.9,15.9 0 0 1 -5.2,1.7 h -1.7 l -2.1,-0.2 a 7.2,7.2 0 0 1 -3.1,-1.1 l -0.4,-0.3 a 0.4,0.4 0 0 0 -0.5,0.1 c -0.3,0.4 0.9,1.6 1.2,1.8 z"
                 id="path1692"
                 inkscape:connector-curvature="0" />
              <path
                 d="m 183.1,79.1 a 4.8,4.8 0 0 1 -1.9,1.6 7.5,7.5 0 0 1 -3.9,0.6 19.8,19.8 0 0 1 -4.1,-0.8 c -0.5,-0.1 -1.6,-0.4 -1.7,-1.2 a 2.4,2.4 0 0 1 0.2,-0.8 c 0.1,-0.3 0.3,-0.6 0.6,-0.6 l 0.6,0.2 a 10.5,10.5 0 0 0 4.6,1.2 h 1.5 a 5.9,5.9 0 0 0 1.7,-0.4 6,6 0 0 0 2.5,-1.3 l 0.3,-0.3 a 0.4,0.4 0 0 1 0.5,0 c 0.2,0.3 -0.7,1.6 -0.9,1.8 z"
                 id="path1694"
                 inkscape:connector-curvature="0" />
              <path
                 d="m 154.4,91.5 a 4.1,4.1 0 0 0 3.4,1.7 4.5,4.5 0 0 0 3.3,-2"
                 id="path1696"
                 inkscape:connector-curvature="0"
                 style="fill:#e9af80;stroke:#000000;stroke-linecap:round;stroke-linejoin:round" />
              <path
                 d="m 175.8,90.7 a 4,4 0 0 0 6.6,-1.4"
                 id="path1698"
                 inkscape:connector-curvature="0"
                 style="fill:#e9af80;stroke:#000000;stroke-linecap:round;stroke-linejoin:round" />
              <g
                 id="g1710"
                 style="opacity:0.2">
                <path
                   d="m 184.8,69.4 a 8.3,8.3 0 0 0 1.1,-7.5 13.8,13.8 0 0 0 -4.7,-6.3"
                   id="path1700"
                   inkscape:connector-curvature="0"
                   style="fill:none;stroke:#ffffff;stroke-linecap:round;stroke-linejoin:round" />
                <path
                   d="m 174.5,67.5 a 16.5,16.5 0 0 0 2.8,-6 c 1.9,-7.6 -3.6,-13.8 -4.3,-14.7"
                   id="path1702"
                   inkscape:connector-curvature="0"
                   style="fill:none;stroke:#ffffff;stroke-linecap:round;stroke-linejoin:round" />
                <path
                   d="m 165.3,65 c 2.3,-1.5 5.1,-3.5 5.2,-6.6 V 58 a 14.8,14.8 0 0 0 -4.1,-8.6 16.3,16.3 0 0 0 -8.4,-4.6"
                   id="path1704"
                   inkscape:connector-curvature="0"
                   style="fill:none;stroke:#ffffff;stroke-linecap:round;stroke-linejoin:round" />
                <path
                   d="M 154.6,63.1 A 14.3,14.3 0 0 0 140.3,56.5"
                   id="path1706"
                   inkscape:connector-curvature="0"
                   style="fill:none;stroke:#ffffff;stroke-linecap:round;stroke-linejoin:round" />
                <path
                   d="m 147.3,67.5 a 13.4,13.4 0 0 0 -2.8,-1.8 20.5,20.5 0 0 0 -3.1,-1.3 16.5,16.5 0 0 0 -6.9,-1.2 6.3,6.3 0 0 0 -2.7,1"
                   id="path1708"
                   inkscape:connector-curvature="0"
                   style="fill:none;stroke:#ffffff;stroke-linecap:round;stroke-linejoin:round" />
              </g>
            </svg>
          </g>
        </svg>
      </svg>
      <svg
         width="500"
         height="600"
         style="overflow:visible"
         version="1.1"
         id="svg1802">
        <svg
           viewBox="0 0 500 600"
           preserveAspectRatio="xMidYMin slice"
           width="500"
           height="600"
           style="overflow:visible"
           version="1.1"
           id="svg1800">
          <g
             id="g1798">
            <svg
               viewBox="0 0 500 600"
               version="1.1"
               id="svg1796"
               width="100%"
               height="100%">
              <g
                 id="g1722"
                 style="opacity:0.92000002">
                <path
                   d="m 104.9,525.2 -2.8,8.4 c -1.5,4.4 -3.1,8.9 -2.9,13.5 0.2,4.6 2.3,9.5 6.4,11.6 4.1,2.1 5.8,1.4 8.8,1.3 l 8.7,-0.2 a 12.1,12.1 0 0 0 5,-1 7.4,7.4 0 0 0 3.2,-5.3 19.2,19.2 0 0 0 -0.5,-6.3 137.9,137.9 0 0 0 -7,-23.5 c -0.6,-1.6 -1.4,-3.2 -3.1,-3.8 a 10.5,10.5 0 0 0 -3.1,-0.3 49.2,49.2 0 0 0 -7.6,0.9 9.8,9.8 0 0 0 -3.8,1.5 3.1,3.1 0 0 0 -1.3,3.2 z"
                   id="path1720"
                   inkscape:connector-curvature="0"
                   style="stroke:#000000;stroke-linecap:round;stroke-linejoin:round" />
              </g>
              <g
                 id="g1744"
                 style="opacity:0.3">
                <path
                   d="m 128.8,550.9 0.3,0.8 a 45.1,45.1 0 0 0 -14.6,-2.3 28.4,28.4 0 0 0 -11.4,3"
                   id="path1724"
                   inkscape:connector-curvature="0"
                   style="fill:none;stroke:#ffffff;stroke-linecap:round;stroke-linejoin:round" />
                <path
                   d="m 121.5,535.1 a 13.5,13.5 0 0 0 -6.6,-0.6 35.5,35.5 0 0 0 -6.6,1.7"
                   id="path1726"
                   inkscape:connector-curvature="0"
                   style="fill:none;stroke:#ffffff;stroke-linecap:round;stroke-linejoin:round" />
                <path
                   d="m 121.7,540.2 a 11.6,11.6 0 0 0 -6.9,-0.8 26.6,26.6 0 0 0 -6.7,2.3"
                   id="path1728"
                   inkscape:connector-curvature="0"
                   style="fill:none;stroke:#ffffff;stroke-linecap:round;stroke-linejoin:round" />
                <path
                   d="m 121.8,544.8 c 0,-0.1 0.3,0 0.2,0.1 h -0.4 c -4.5,-1.3 -9.4,-0.3 -13.8,1.6"
                   id="path1730"
                   inkscape:connector-curvature="0"
                   style="fill:none;stroke:#ffffff;stroke-linecap:round;stroke-linejoin:round" />
                <path
                   d="m 107.1,535 a 1.5,1.5 0 0 1 1,2.8 1.5,1.5 0 0 1 -1.9,-2.2 1.4,1.4 0 0 1 1.6,-0.5"
                   id="path1732"
                   inkscape:connector-curvature="0"
                   style="fill:none;stroke:#ffffff;stroke-linecap:round;stroke-linejoin:round" />
                <path
                   d="m 106.1,540.5 a 3.7,3.7 0 0 1 1.8,0.1 c 0.1,0.1 0.3,0.1 0.3,0.3 a 0.6,0.6 0 0 1 0.1,0.4 2.3,2.3 0 0 1 -0.4,2 2.1,2.1 0 0 1 -2.7,-0.1 0.8,0.8 0 0 1 -0.5,-0.5 1.7,1.7 0 0 1 0.1,-0.7 3.9,3.9 0 0 1 0.6,-1.1 0.9,0.9 0 0 1 1.1,-0.3"
                   id="path1734"
                   inkscape:connector-curvature="0"
                   style="fill:none;stroke:#ffffff;stroke-linecap:round;stroke-linejoin:round" />
                <path
                   d="m 106.4,545.4 a 1.4,1.4 0 0 1 1.6,0.5 1.2,1.2 0 0 1 -0.3,1.6 1.1,1.1 0 0 1 -0.7,0.3 1.7,1.7 0 0 1 -1.5,-0.5 1.2,1.2 0 0 1 -0.1,-1.4 1.1,1.1 0 0 1 1.4,-0.3"
                   id="path1736"
                   inkscape:connector-curvature="0"
                   style="fill:none;stroke:#ffffff;stroke-linecap:round;stroke-linejoin:round" />
                <path
                   d="m 122,544.1 c 0.5,-0.2 1.1,-0.5 1.6,-0.2 0.5,0.3 0.6,0.9 0.7,1.5 l 0.2,1 a 0.9,0.9 0 0 1 -0.1,0.5 0.5,0.5 0 0 1 -0.4,0.2 4,4 0 0 1 -1.5,0.3 1.6,1.6 0 0 1 -1.3,-0.9 1.4,1.4 0 0 1 0,-0.9 6.1,6.1 0 0 1 0.7,-1.4 h 0.3"
                   id="path1738"
                   inkscape:connector-curvature="0"
                   style="fill:none;stroke:#ffffff;stroke-linecap:round;stroke-linejoin:round" />
                <path
                   d="m 121.9,539 a 1.3,1.3 0 0 1 1.1,-0.6 1.5,1.5 0 0 1 1.2,1.8 1.6,1.6 0 0 1 -1.8,1.2 0.9,0.9 0 0 1 -0.6,-0.4 0.8,0.8 0 0 1 0.1,-0.9 l 0.5,-1.2"
                   id="path1740"
                   inkscape:connector-curvature="0"
                   style="fill:none;stroke:#ffffff;stroke-linecap:round;stroke-linejoin:round" />
                <path
                   d="m 121.4,534.4 c 0.7,-0.3 0.9,-1.7 1.9,-1.1 1,0.6 0.5,0.5 0.6,0.8 a 2.2,2.2 0 0 1 -0.1,1.8 1.5,1.5 0 0 1 -2.8,-0.4 c -0.1,-0.3 0,-1.2 0.6,-1.1"
                   id="path1742"
                   inkscape:connector-curvature="0"
                   style="fill:none;stroke:#ffffff;stroke-linecap:round;stroke-linejoin:round" />
              </g>
              <g
                 id="g1748"
                 style="opacity:0.92000002">
                <path
                   d="m 222.9,529.1 a 8.8,8.8 0 0 1 2.4,1.1 5.3,5.3 0 0 1 1.8,4.8 c -0.4,3.8 -3.7,6.7 -7.3,7.7 -3.6,1 -7.5,0.7 -11.2,0.3 l -32.4,-3.4 a 15.1,15.1 0 0 1 -5.2,-1.1 c -4.4,-2 -6.2,-7.3 -6.5,-12.2 -0.3,-4.9 0.6,-9.8 4.4,-12.5 3.8,-2.7 5.6,-2 8.5,-2.2 2.9,-0.2 10.3,-2.2 13.6,-0.6 3.3,1.6 3.4,5.5 5.9,7.5 7.4,5.7 17.4,7.6 26,10.6 z"
                   id="path1746"
                   inkscape:connector-curvature="0"
                   style="stroke:#000000;stroke-linecap:round;stroke-linejoin:round" />
              </g>
              <g
                 id="g1766"
                 style="opacity:0.3">
                <path
                   d="m 218.2,528.5 c -0.2,-0.5 -0.9,-0.4 -1.3,-0.2 a 15,15 0 0 0 -8.1,8.5"
                   id="path1750"
                   inkscape:connector-curvature="0"
                   style="fill:none;stroke:#ffffff;stroke-linecap:round;stroke-linejoin:round" />
                <path
                   d="m 210.7,525.7 a 16.4,16.4 0 0 0 -4.3,5.5 c 0.1,0.1 0.3,0 0.3,-0.2"
                   id="path1752"
                   inkscape:connector-curvature="0"
                   style="fill:none;stroke:#ffffff;stroke-linecap:round;stroke-linejoin:round" />
                <path
                   d="m 206.9,523.8 a 9.7,9.7 0 0 0 -3,4.9"
                   id="path1754"
                   inkscape:connector-curvature="0"
                   style="fill:none;stroke:#ffffff;stroke-linecap:round;stroke-linejoin:round" />
                <path
                   d="m 203.1,522.5 a 10.1,10.1 0 0 0 -2.5,4.1 c 0,0 0.2,0 0.1,-0.1"
                   id="path1756"
                   inkscape:connector-curvature="0"
                   style="fill:none;stroke:#ffffff;stroke-linecap:round;stroke-linejoin:round" />
                <path
                   d="m 223.9,539.8 a 6.4,6.4 0 0 1 -3.6,1.1 51.7,51.7 0 0 1 -6.8,0.1 c -2.1,-0.1 -4.2,-0.4 -6.3,-0.6 l -17.1,-1.8 a 59.7,59.7 0 0 1 -6.1,-0.8 c -2.1,-0.3 -4.1,-0.8 -6.1,-1 -4.1,-0.5 -8.5,-0.4 -11.6,-3 q -0.3,-0.1 -0.3,-0.3 c 0.1,-0.2 0.4,-0.2 0.3,0"
                   id="path1758"
                   inkscape:connector-curvature="0"
                   style="fill:none;stroke:#ffffff;stroke-linecap:round;stroke-linejoin:round" />
                <path
                   d="m 206.5,531.4 h 0.3 a 2.5,2.5 0 0 1 0.4,1.7 1.5,1.5 0 0 1 -2.9,0 2,2 0 0 1 1.5,-2 c 0.3,0 0.7,0.1 0.7,0.4 a 0.4,0.4 0 0 1 -0.5,-0.2"
                   id="path1760"
                   inkscape:connector-curvature="0"
                   style="fill:none;stroke:#ffffff;stroke-linecap:round;stroke-linejoin:round" />
                <path
                   d="m 203.7,528.4 a 0.4,0.4 0 0 1 0.5,0.2 0.7,0.7 0 0 1 0.2,0.6 1.7,1.7 0 0 1 -0.4,1.2 1.1,1.1 0 0 1 -1.3,-1.7 1.6,1.6 0 0 1 1.5,-0.2"
                   id="path1762"
                   inkscape:connector-curvature="0"
                   style="fill:none;stroke:#ffffff;stroke-linecap:round;stroke-linejoin:round" />
                <path
                   d="m 199.8,526.6 c 0.1,-0.2 0.4,-0.2 0.6,-0.2 l 0.4,0.4 a 1.5,1.5 0 0 1 0.2,1.3 1,1 0 0 1 -0.4,0.5 1.2,1.2 0 1 1 -0.2,-2.1"
                   id="path1764"
                   inkscape:connector-curvature="0"
                   style="fill:none;stroke:#ffffff;stroke-linecap:round;stroke-linejoin:round" />
              </g>
              <path
                 d="m 161.8,378.4 c -7.2,23.6 -13.5,47.5 -18.7,71.7 -5.2,24.2 -11.4,48.1 -11.1,71.8 a 3,3 0 0 1 -0.3,1.6 3,3 0 0 1 -2.4,1.2 89.1,89.1 0 0 1 -29.6,-0.4 c -2.9,-0.5 12.1,-99.3 13.6,-108.5 3.7,-22.4 8.9,-44.7 11.8,-67.3 2.9,-22.6 6.6,-47.9 7.4,-72.2 a 2.1,2.1 0 0 1 0.3,-1.3 2.4,2.4 0 0 1 0.8,-0.6 c 5.1,-2.6 10.2,-1.8 15.7,-1.8 5.5,0 13,-0.2 19.5,-0.1 11.9,0.2 23.9,0.7 35.9,0.7 2.2,0 4.6,0.1 6.1,1.7 1.5,1.6 1.6,3.4 1.8,5.3 1.9,18.4 3.5,37 2,55.6 -1.6,20.8 -4.3,41.5 -7.1,62.3 -1.3,10 -2.9,20.1 -3.9,30.2 -2.1,24.1 -4.3,48.2 -5,72.4 a 93.7,93.7 0 0 0 -0.1,10.6 c 0.1,1.8 1,3.4 -0.2,5 -2.9,3.9 -11,3.2 -15.1,3.2 -6,0.1 -14.1,1.8 -19.2,-1.7 -2,-1.4 -0.7,-18.2 -0.7,-21.2 -0.1,-7.9 0,-15.8 0.2,-23.7 1.5,-48.1 7.1,-96.7 11.3,-144.8"
                 id="path1768"
                 inkscape:connector-curvature="0"
                 style="fill-rule:evenodd" />
              <path
                 d="m 233.6,331.4 a 2.2,2.2 0 0 1 -0.1,0.8 c -0.3,2 -0.7,4 -1.1,5.9 -0.9,3.8 -1.7,7.6 -2.5,11.5 a 12,12 0 0 1 -4.3,7.6 20.3,20.3 0 0 1 -6.2,3.2 4.9,4.9 0 0 1 -2.6,0.4 c -3.4,-0.6 -0.6,-4.3 0.8,-5.4 1.4,-1.1 2.2,-1.7 3.3,-2.7 1.1,-1 2.6,-1.8 2.6,-3.3 l -0.7,-13.3 c -1.1,1 -1.3,2.7 -1.6,4.2 a 34.7,34.7 0 0 1 -1.3,4.6 5.1,5.1 0 0 1 -1.6,2.4 1.7,1.7 0 0 1 -2.5,-0.2 3.2,3.2 0 0 1 -0.3,-1.7 l 0.2,-6.7 a 25.9,25.9 0 0 1 0.5,-5.6 c 0.7,-3.6 2.8,-6.8 5.2,-9.6 a 4.4,4.4 0 0 1 1.6,-1.4 5.6,5.6 0 0 1 2.2,-0.3 c 2.4,0.1 5,0 7.3,0.8 2.3,0.8 1.7,1.3 1.6,3.1 a 36.6,36.6 0 0 1 -0.5,5.7 z"
                 id="path1770"
                 inkscape:connector-curvature="0"
                 style="fill:#e9af80;stroke:#1a1a1a;stroke-linecap:round;stroke-linejoin:round" />
              <path
                 d="m 131.6,268.3 a 15.3,15.3 0 0 0 0.9,6.4 13.1,13.1 0 0 0 3.3,4.2 6.4,6.4 0 0 0 1.3,1.5 7.4,7.4 0 0 0 4.4,1.4 h 1.6 c 3.7,0 7.8,-0.8 10.4,-0.7 l 22.6,1 a 99.9,99.9 0 0 0 13.4,0 c 7.3,-0.5 19.8,-1.3 22.3,-9.5 a 14.8,14.8 0 0 0 0.1,-6.3 A 430.5,430.5 0 0 1 209,192 c -0.5,11 0.4,22.4 1.6,33.5 1.6,14.8 5,29.6 5.3,44.3 0.3,14.7 -1.3,31.2 1.7,46.8 a 7.7,7.7 0 0 0 1.9,4.4 8,8 0 0 0 4,1.4 l 10.2,1.3 a 4.2,4.2 0 0 0 2.7,-0.3 c 0.9,-0.6 1.1,-2 1.2,-3.2 1.5,-16.7 3,-33.4 3.3,-50.3 0.2,-15 -2.7,-28.9 -4.7,-43.9 -2,-15 -4.1,-28.6 -6.6,-42.9 -1,-6.3 -2.2,-12.6 -5.5,-18.2 a 32.8,32.8 0 0 0 -9.5,-10.1 c -9.2,-6.8 -21.3,-10.2 -30.8,-16.2 l -2.7,-1.6 -2.4,-1.8 a 38.5,38.5 0 0 1 -6,-3.9 5,5 0 0 0 0.2,2.7 16.9,16.9 0 0 0 4.6,6 17.5,17.5 0 0 1 2.4,2.3 17.5,17.5 0 0 0 2.9,3.2 l 5.5,5.3 c 0.1,0.2 -4.6,1.8 -5,1.9 -0.4,0.1 -3.5,-0.5 -5.3,-0.2 a 8.3,8.3 0 0 0 -3.9,2.1 c -2.2,1.7 -5.2,6.1 -8,6.8 -2.8,0.7 -6.6,-4 -8.3,-5.6 -6.1,-5.8 -10.2,-15.5 -19.2,-12.4 -9,3.1 -16.9,8.7 -24.9,13.4 -5.2,3 -10.5,5.2 -9.5,12 0.8,5.3 5.3,9.2 8.4,13.4 1.4,2 1.1,4.2 2,6.4 1.3,3.7 3.9,7.2 5.8,10.7 3.2,6.2 6.4,12.5 8.2,19.3 3.9,15 2.8,34.3 3,49.7 z"
                 stroke-miterlimit="10"
                 id="path1772"
                 inkscape:connector-curvature="0"
                 style="fill:#8702bb;stroke:#000000;stroke-miterlimit:10" />
              <rect
                 x="139.10001"
                 y="169.60001"
                 width="181"
                 height="2.5999999"
                 transform="rotate(-60,229.61102,170.90204)"
                 id="rect1774" />
              <path
                 d="M 289.2,232.6 H 289"
                 id="path1776"
                 inkscape:connector-curvature="0"
                 style="fill:#e9af80;stroke:#000000;stroke-linecap:round;stroke-linejoin:round" />
              <path
                 d="m 205.1,217.9 c 0.6,1.9 -2.7,1.3 -2.8,2.8 a 0.9,0.9 0 0 0 0.3,0.5 c -1.3,-1.1 -3.1,0.8 -4.1,1.5 l -4.5,2.9 a 31,31 0 0 1 -3.6,2.1 9.7,9.7 0 0 1 -2.2,0.8 c -1.8,0.1 -16.2,10.3 -16.2,10.3 0,0 -1.3,-13.9 -4.6,-16.4 0,0 14.4,-4.4 16.6,-6.8 2.2,-2.4 16,-15.2 16.5,-15.8 0.5,-0.6 1.6,-0.4 2.2,-0.4 l 7.2,-0.5 c 1.7,-0.1 4.4,-0.8 5.9,0.4 1.5,1.2 0.7,2.1 0.7,3.3 0,1.2 0.1,2.6 0.1,3.9 0,1.3 0.2,1.2 -0.2,1.6 l 0.7,1.2 c 0.3,1.6 -1.5,2.9 -2.4,3.8 -0.9,0.9 -1,0.8 -0.7,1.7 a 2.2,2.2 0 0 1 -0.7,2.6 7.9,7.9 0 0 1 -2.6,1.3 c -0.7,0.3 -0.9,0.3 -1,1 -0.1,0.7 -2.9,2.4 -4.5,2.8 a 15.5,15.5 0 0 1 -2.9,0.4 c -0.5,0.1 -1.4,0.2 -1.8,-0.2 -0.4,-0.4 -0.3,-1.1 0.3,-1.6 h -0.1"
                 id="path1778"
                 inkscape:connector-curvature="0"
                 style="fill:#e9af80;stroke:#000000;stroke-linecap:round;stroke-linejoin:round" />
              <path
                 d="m 203.8,210.6 a 18.3,18.3 0 0 1 3.2,3.6 c 0.9,1.4 1.6,2.9 2.4,4.4 a 2.1,2.1 0 0 0 0.4,0.6 v 0"
                 id="path1780"
                 inkscape:connector-curvature="0"
                 style="fill:none;stroke:#000000;stroke-linecap:round;stroke-linejoin:round" />
              <path
                 d="m 204.6,205.4 a 19.4,19.4 0 0 1 3.3,2.3 l 2.4,2.4 1.8,2 1.7,2.1"
                 id="path1782"
                 inkscape:connector-curvature="0"
                 style="fill:none;stroke:#000000;stroke-linecap:round;stroke-linejoin:round" />
              <path
                 d="m 204.5,201.7 3.4,1.5 a 27.1,27.1 0 0 1 3,1.3 l 2.2,1.2 1.7,1.1 a 10.7,10.7 0 0 1 1.6,1.4"
                 id="path1784"
                 inkscape:connector-curvature="0"
                 style="fill:none;stroke:#000000;stroke-linecap:round;stroke-linejoin:round" />
              <path
                 d="m 212.4,204.7 a 7.2,7.2 0 0 0 2,-0.9 l -0.8,1.5"
                 id="path1786"
                 inkscape:connector-curvature="0"
                 style="fill:none;stroke:#000000;stroke-linecap:round;stroke-linejoin:round" />
              <path
                 d="m 132.9,145.6 a 246.9,246.9 0 0 0 -25.2,15.1 c -19.2,13.1 -8.7,37.4 -4,55.5 a 133.3,133.3 0 0 0 4.3,14 c 5.7,13.7 12.3,25.8 28.9,21.4 16.6,-4.4 35.3,-10.3 51.8,-18.3 a 61.8,61.8 0 0 0 -6.5,-16.2 3.6,3.6 0 0 0 -1.6,-1.8 4.1,4.1 0 0 0 -1.9,-0.2 l -23.8,2.2 c -6.7,0.7 -12,3.2 -18.2,4.9 -3.3,-8.6 -4.2,-18 -8.2,-26.5"
                 stroke-miterlimit="10"
                 id="path1788"
                 inkscape:connector-curvature="0"
                 style="fill:#8702bb;stroke:#000000;stroke-miterlimit:10" />
              <path
                 d="m 181.7,143.5 a 19.6,19.6 0 0 1 4.2,3.9 5.5,5.5 0 0 1 1.2,2.7 c 0.2,1.8 -0.9,3.4 -2.1,4.7 a 13.9,13.9 0 0 1 -6.3,3.7 c -2.1,0.5 -4.3,0.7 -6.5,1.2 a 21.2,21.2 0 0 0 -7.4,3.6 3.2,3.2 0 0 1 -2.4,0.9 4.7,4.7 0 0 1 -0.9,-0.6 c -2.8,-2.2 -5.9,-5.1 -9.2,-6.6 -3.3,-1.5 -5.9,-1 -8.3,-3.3 -2.4,-2.3 -5.7,-5.8 -5.1,-9.3 a 8.5,8.5 0 0 1 0.9,-2.2 c 1.7,-3 4.5,-5.2 7.4,-7.1 a 6.9,6.9 0 0 0 3.8,-5.7 c 4.9,2.6 10.5,3 15.9,3.3 1.8,0 3.6,0.1 5.1,-0.8 -0.2,5.3 6,8.8 9.7,11.6 z"
                 id="path1790"
                 inkscape:connector-curvature="0"
                 style="fill:#e9af80;stroke:#000000;stroke-linecap:round;stroke-linejoin:round" />
              <path
                 d="m 167.8,145.7 a 1.6,1.6 0 0 1 -2.6,0.6 c -0.2,-0.1 -0.3,-0.4 -0.5,-0.6"
                 id="path1792"
                 inkscape:connector-curvature="0"
                 style="fill:none;stroke:#1a1a1a;stroke-linecap:round;stroke-linejoin:round" />
              <path
                 d="m 180,145.5 c -0.1,1.6 -1.3,2.7 -2.6,3.9 l -4.8,4.5 -6.6,6.1 c -1.4,1.3 -1.8,1.5 -3.4,0.4 a 28.5,28.5 0 0 1 -3.3,-2.5 37.2,37.2 0 0 1 -4.1,-4.8 23.2,23.2 0 0 1 -3.9,-5.4 19.5,19.5 0 0 1 -2.3,-7.9 20.5,20.5 0 0 1 0.6,-7.8 c -0.6,0.2 -1.3,1.1 -1.8,1.6 a 24.8,24.8 0 0 1 -2.6,1.9 c -1.8,1 -3.7,1.8 -5.4,2.9 a 26.2,26.2 0 0 1 -5.8,2.9 1.5,1.5 0 0 0 -0.7,0.5 1.9,1.9 0 0 0 -0.2,0.7 c -0.4,3.5 -1.2,6.9 -0.6,10.3 0.1,0.5 1.1,5.6 0.7,5.8 a 25.5,25.5 0 0 1 16.1,-1.6 c 5.6,1.3 9.8,4.7 13.7,8.5 l 3.1,-2.8 c 6.2,-4.4 12.9,0.4 18.7,3 a 17.8,17.8 0 0 0 1.3,-4.5 128.4,128.4 0 0 1 5,-13.5 c 0.7,-1.7 1.3,-3 -0.3,-4.4 -1.6,-1.4 -2.7,-1.6 -4,-2.4 l -7.8,-4.5 c -2.5,-1.5 -4.8,-3.3 -7.5,-4.4 -0.4,1.8 0.5,4 1.5,5.4 a 19.2,19.2 0 0 0 4.6,4.4 c 1.3,1 2.4,1.9 2.4,3.7 z"
                 id="path1794"
                 inkscape:connector-curvature="0"
                 style="fill:#ffffff;stroke:#000000;stroke-linecap:round;stroke-linejoin:round" />
            </svg>
          </g>
        </svg>
      </svg>
    </g>
  </svg>
</svg>
