<?xml version="1.0" encoding="UTF-8" standalone="no"?>
<svg
   xmlns:dc="http://purl.org/dc/elements/1.1/"
   xmlns:cc="http://creativecommons.org/ns#"
   xmlns:rdf="http://www.w3.org/1999/02/22-rdf-syntax-ns#"
   xmlns:svg="http://www.w3.org/2000/svg"
   xmlns="http://www.w3.org/2000/svg"
   xmlns:sodipodi="http://sodipodi.sourceforge.net/DTD/sodipodi-0.dtd"
   xmlns:inkscape="http://www.inkscape.org/namespaces/inkscape"
   width="218.41011"
   height="259.47498"
   style="overflow:visible"
   version="1.1"
   id="svg1015"
   sodipodi:docname="triste.svg"
   inkscape:version="0.92.5 (2060ec1f9f, 2020-04-08)">
  <metadata
     id="metadata1021">
    <rdf:RDF>
      <cc:Work
         rdf:about="">
        <dc:format>image/svg+xml</dc:format>
        <dc:type
           rdf:resource="http://purl.org/dc/dcmitype/StillImage" />
        <dc:title></dc:title>
      </cc:Work>
    </rdf:RDF>
  </metadata>
  <defs
     id="defs1019" />
  <sodipodi:namedview
     pagecolor="#ffffff"
     bordercolor="#666666"
     borderopacity="1"
     objecttolerance="10"
     gridtolerance="10"
     guidetolerance="10"
     inkscape:pageopacity="0"
     inkscape:pageshadow="2"
     inkscape:window-width="640"
     inkscape:window-height="480"
     id="namedview1017"
     showgrid="false"
     inkscape:zoom="0.39333333"
     inkscape:cx="126.20918"
     inkscape:cy="123.46439"
     inkscape:window-x="42"
     inkscape:window-y="25"
     inkscape:window-maximized="0"
     inkscape:current-layer="svg1015" />
  <svg
     viewBox="0 0 500 600"
     preserveAspectRatio="xMidYMin slice"
     width="500"
     height="600"
     style="overflow:visible"
     version="1.1"
     id="svg1013"
     transform="translate(-123.79082,-163.98941)">
    <g
       id="g1011">
      <svg
         width="500"
         height="600"
         style="overflow:visible"
         version="1.1"
         id="svg991">
        <svg
           viewBox="0 0 500 600"
           preserveAspectRatio="xMidYMin slice"
           width="500"
           height="600"
           style="overflow:visible"
           version="1.1"
           id="svg989">
          <g
             id="g987">
            <svg
               viewBox="0 0 500 600"
               version="1.1"
               id="svg985"
               width="100%"
               height="100%">
              <path
                 d="M 185.5,242.9 302,241.5 c 1.7,57.3 9.8,144.8 -53,149 -65.7,-12.8 -72.1,-78.2 -63.5,-147.6 z"
                 id="path935"
                 inkscape:connector-curvature="0"
                 style="fill:#ffffff;fill-rule:evenodd" />
              <path
                 d="m 310.5,265.7 c -0.7,-13 0.3,-29.3 -11.2,-37.9 -21.5,-13.9 -54.1,-16.2 -76.1,-2.3 79.9,-12.7 114.4,25.2 7.5,18.9 21.8,7.8 47.8,9.5 68.8,-1.3 6.6,37.5 0.5,76.5 -10,112.8 -2.9,16.3 -15.5,29 -32.5,29.2 26.2,11.4 36.9,-12.4 41.8,-33.9 a 291,291 0 0 0 11.4,-85.5 z"
                 id="path937"
                 inkscape:connector-curvature="0"
                 style="fill-rule:evenodd" />
              <path
                 d="m 236.4,367.3 0.2,0.3 c 0,-0.1 0.1,-0.2 0.1,-0.3 h -0.3"
                 id="path939"
                 inkscape:connector-curvature="0"
                 style="fill-rule:evenodd" />
              <path
                 d="m 226,244.2 -2.2,-0.2 a 71.6,71.6 0 0 0 -1.9,8 44.2,44.2 0 0 1 6.3,-0.1 49.8,49.8 0 0 1 1.8,-7.4 l -4,-0.3"
                 id="path941"
                 inkscape:connector-curvature="0"
                 style="fill-rule:evenodd" />
              <path
                 d="m 282.1,248.5 v 0 m 9.3,-20.5 a 26.6,26.6 0 0 1 10.1,3.9 c -6.1,1.8 2.9,6.2 -11.4,9.4 -10.7,4 -97.3,8.4 -93.7,-7.7 l -2.1,-0.8 C 225.2,222.5 260,219 291.4,228 m 18.5,3.8 c -14.2,-20.3 -112.3,-19.5 -126.5,0.3 -8.1,19.1 -4.6,41 -5.1,61.3 0.9,31.3 10.3,65.4 33.7,87.4 10.2,12.1 67.2,15 69.1,-2.3 -3.5,-1.7 -6.8,4.5 -10.7,4.9 -22,5.4 -51.7,3.1 -63.2,-19.5 -22.7,-36.7 -23.8,-82.2 -17.9,-123.8 15.1,12.4 36.8,9.8 55.2,9.7 a 218.2,218.2 0 0 0 31.3,-0.8 h 0.2 l 1.3,-0.2 h 1 l 1.7,-0.2 h 1 c 0.4,-0.1 0.8,-0.1 0.2,-0.1 h 0.4 c 10.6,-1.9 28.1,-2.7 28.3,-16.4"
                 id="path943"
                 inkscape:connector-curvature="0"
                 style="fill-rule:evenodd" />
              <path
                 d="m 282.8,248.4 v 0"
                 id="path945"
                 inkscape:connector-curvature="0"
                 style="fill-rule:evenodd" />
              <path
                 d="m 282.9,249 v 0 m -0.2,0 h -0.5 c 0.3,-0.1 0.2,0.2 0.5,0 v 0"
                 id="path947"
                 inkscape:connector-curvature="0"
                 style="fill-rule:evenodd" />
              <path
                 d="m 280.9,248.4 -0.8,0.2 0.9,-0.2 h -0.1"
                 id="path949"
                 inkscape:connector-curvature="0"
                 style="fill-rule:evenodd" />
              <path
                 d="m 205.6,236.6 -1.1,0.2 a 10.8,10.8 0 0 0 1.9,0.8 c 0.1,-0.1 0.1,-0.3 0.2,-0.4 l -1,-0.6"
                 id="path951"
                 inkscape:connector-curvature="0"
                 style="fill-rule:evenodd" />
              <path
                 d="m 304.7,263.1 a 2.4,2.4 0 0 0 -2.7,-1 v 0 l 0.3,4.9 c 1.6,-0.5 3.6,-2.1 2.4,-3.9"
                 id="path953"
                 inkscape:connector-curvature="0"
                 style="fill-rule:evenodd" />
              <path
                 d="m 289.3,267.3 v 0.4 h 0.2 c 0,-0.2 0.1,-0.4 0.1,-0.6 l -0.3,0.2"
                 id="path955"
                 inkscape:connector-curvature="0"
                 style="fill-rule:evenodd" />
              <path
                 d="m 300.3,234.2 c -1.5,-17.1 -86.6,-5.9 -100.2,-1.8 -20.2,3.6 -15.2,20.1 -2.5,14.4 12.7,7.7 30.2,1.6 44.5,3.2 15,-2 59.7,7.5 58.2,-15.8"
                 id="path957"
                 inkscape:connector-curvature="0"
                 style="fill:#bd8d46;fill-rule:evenodd" />
              <path
                 d="m 189,235.9 -0.2,0.2 0.2,-0.2 m 3.4,-2.2 c 24.5,-10.9 75.2,-8.7 100.3,-0.3 -17.4,9.2 -89.7,15.2 -103,2 l 2.7,-1.7 m 102.1,-2.3 v 0.3 c -0.1,-0.1 0,-0.2 0,-0.3 m 0.6,3.1 0.2,0.2 c -0.1,0 -0.1,-0.1 -0.2,-0.2 v 0 m 9,-0.2 a 2.8,2.8 0 0 0 -1.2,-0.4 c 3.8,-21.9 -128.7,-20.3 -118.2,4.3 -11.8,20.1 68.6,12.7 79.4,12.5 8.6,-0.3 49,-1.4 40,-16.4"
                 id="path959"
                 inkscape:connector-curvature="0"
                 style="fill-rule:evenodd" />
              <path
                 d="m 259,225.6 c -8.6,-15.8 -14.2,-8.4 -3,-27.8 0.3,-12.9 -9.5,-11 -2.6,-30.3 3.4,-4.2 -4.2,-6.5 -5.7,4.2 -3.8,9.1 1.9,16.7 4.4,24.7 -8.3,13.4 -8.7,17.9 3.2,29.2 -7.4,6.9 -17.3,11.2 -26.9,14.2 -6.7,10.1 31.8,-8.7 30.6,-14.2 v 0"
                 id="path961"
                 inkscape:connector-curvature="0"
                 style="fill-rule:evenodd" />
              <path
                 d="m 234.5,187.2 z m 0.2,-0.1 z m 0.2,-0.5 z m 0,0.4 z m 6.9,32.8 c -5.3,-10.4 -11.2,-20.4 -7,-32.5 v 0 c 3.1,0.7 3.9,-3.8 0.7,-4 -10.5,-0.5 -6.6,22.1 -2.7,27.8 13,16.8 -1.5,15.4 0.9,23.9 4.9,-0.1 9.2,-10.6 8.1,-15.2 z"
                 id="path963"
                 inkscape:connector-curvature="0"
                 style="fill-rule:evenodd" />
              <path
                 d="m 271.7,195.1 c -2.4,-3 -6.3,1.4 -8.4,2.9 -4.6,5.5 0.9,12.3 0.1,18.5 -0.8,6.2 -8.8,9.7 -7.8,14.9 3.5,1.9 5.7,-4.5 8,-6.3 5.6,-6.3 3.2,-14.5 2.1,-21.9 -0.3,-4.3 7.6,-3.9 6,-8.1"
                 id="path965"
                 inkscape:connector-curvature="0"
                 style="fill-rule:evenodd" />
              <path
                 d="m 209.9,292.5 v -0.3 a 0.2,0.2 0 0 0 0,0.3 m 27.5,77 C 226,336 219,300.6 215.3,265.4 c -0.4,-4.1 0.4,-24.3 -6.9,-15.4 -1.8,-8.4 -9.6,-6.2 -15.4,-3.4 -6.3,4.3 -5.1,13.1 -6.4,19.8 -3.5,20.9 2.4,41.2 8.5,61.1 6.1,19.9 12.4,36.8 24.6,52 12.8,18.7 24.9,9.5 17.7,-10"
                 style="opacity:0.2;isolation:isolate;fill-rule:evenodd"
                 id="path967"
                 inkscape:connector-curvature="0" />
              <path
                 d="m 225.7,244.4 c -5,0.9 -45,-6.9 -39.7,0.8 1.3,5.4 51.8,8.1 39.7,-0.8"
                 id="path969"
                 inkscape:connector-curvature="0"
                 style="fill-rule:evenodd" />
              <path
                 d="m 291.5,369.7 c -0.1,-2.8 -3.9,-2.8 -4.9,-0.4 -14.8,18.4 -47.3,23.4 -66.7,9.6 -4.5,-1.3 -7.8,3 -2.8,5.9 13.7,8.3 31.6,10.3 47.2,7.4 11.5,-3.1 21.2,-12.7 27.2,-22.5"
                 id="path971"
                 inkscape:connector-curvature="0"
                 style="fill-rule:evenodd" />
              <path
                 d="m 304.6,314.3 c -5.5,2.3 -2.6,8.3 1.7,10.1 0.1,-4.3 0.8,-8.7 1.1,-13 a 12.8,12.8 0 0 1 -2.8,2.9"
                 id="path973"
                 inkscape:connector-curvature="0"
                 style="fill-rule:evenodd" />
              <path
                 d="m 306.9,291.1 c -1.4,2.5 0.7,4.7 3,5.4 0.1,-2.3 0.4,-4.5 0.5,-6.8 a 2.8,2.8 0 0 0 -3.5,1.4"
                 id="path975"
                 inkscape:connector-curvature="0"
                 style="fill-rule:evenodd" />
              <path
                 d="m 182.7,325.5 v 0 M 210.5,307 c -6.4,-6.1 -9.3,15.9 -12.4,19.7 -15,-9 -32,-14 -48.4,-19.8 -1.6,-4.1 1.9,-12.6 -4.3,-13.4 -6.2,-0.8 -3.5,6.2 -3.3,9.5 -15.1,-5.6 -29.1,15.8 -6.3,11.4 5.9,0 10.9,-3.2 16.6,-0.1 15.7,5.4 32.1,10.1 45.8,19.4 5.1,0.5 5,-7.2 7,-10.5 1.3,-5.3 5.9,-10.8 5.3,-16.2"
                 id="path977"
                 inkscape:connector-curvature="0"
                 style="fill-rule:evenodd" />
              <path
                 d="m 337.2,286.3 v 0 m 0.9,2.5 v 0 m 3.8,-2.4 c -2.7,-5.5 -10.8,-1.9 -15.1,-0.4 0.4,-2.7 1.6,-7.8 -2.5,-8 -6.6,2.5 -9.2,28 -10.7,35.4 -2.1,-2.4 -3.3,-6.1 -6.3,-7.5 a 2.7,2.7 0 0 0 -2.6,4.4 c 3.5,3.5 5.7,11.9 11.5,11.5 10.3,-13 -3.6,-26.4 21.6,-30.1 2.2,-0.7 5.4,-2.7 4.1,-5.3"
                 id="path979"
                 inkscape:connector-curvature="0"
                 style="fill-rule:evenodd" />
              <path
                 d="m 260.4,414.2 c -1.1,-6.9 0.6,-15.2 -2.5,-21.5 -2.6,-2.6 -7.4,-0.5 -7.3,3.2 0.4,6.3 0.9,12.7 1.2,19 -2.9,1.7 -3.2,6.3 -0.2,8 5.5,2.4 10.2,-3.3 8.8,-8.7"
                 id="path981"
                 inkscape:connector-curvature="0"
                 style="fill-rule:evenodd" />
              <path
                 d="m 278.4,412.8 v 0 m 7.2,-2.7 c -1.3,-2.6 -4.4,-3.3 -7.1,-3 -1.5,-6 3.9,-18.4 -4.1,-20.2 -7.9,1.7 -2.9,13.7 -4.3,19.6 0.3,3.4 -1.2,9 3.2,10.2 2.8,0.9 4.9,-2 7.5,-2.3 2.6,-0.3 6.6,-0.8 4.8,-4.3"
                 id="path983"
                 inkscape:connector-curvature="0"
                 style="fill-rule:evenodd" />
            </svg>
          </g>
        </svg>
      </svg>
      <svg
         width="500"
         height="600"
         style="overflow:visible"
         version="1.1"
         id="svg1009">
        <svg
           viewBox="0 0 500 600"
           preserveAspectRatio="xMidYMin slice"
           width="500"
           height="600"
           style="overflow:visible"
           version="1.1"
           id="svg1007">
          <g
             id="g1005">
            <svg
               viewBox="0 0 500 600"
               version="1.1"
               id="svg1003"
               width="100%"
               height="100%">
              <path
                 d="m 289,272 v 0 m 0.2,0.1 v 0 m -1,18 v 0 m 0.6,-18.2 c 3.7,2.1 3.3,7 3.1,10.7 0,-0.1 0,-0.1 0.1,-0.2 -0.4,3 -1.6,5.9 -4.2,7.6 -5.2,-4.2 -5.6,-15.6 1.2,-18 h -0.2 m 1.2,-0.5 v 0 m -1.8,-3.7 c -2.7,0.4 -10.7,7.5 -7.7,9.6 -3.8,10.3 4.1,24.4 14.4,13.7 5.8,-6.9 4.7,-24 -6.7,-23.3"
                 id="path993"
                 inkscape:connector-curvature="0"
                 style="fill-rule:evenodd" />
              <path
                 d="m 288.5,279.9 c -5.4,-0.7 -8,7.2 -3.6,10 8.2,4.5 12.1,-9 3.6,-10"
                 id="path995"
                 inkscape:connector-curvature="0"
                 style="fill-rule:evenodd" />
              <path
                 d="m 258.1,274.2 v 0 m 0.2,0.1 v 0 m 1.5,17.9 v 0 M 257.9,274 c 3.9,1.7 4.1,6.5 4.5,10.2 V 284 c 0.1,3 -0.7,6.1 -3.1,8.1 -5.7,-3.4 -7.7,-14.6 -1.3,-18 a 0.1,0.1 0 0 1 -0.1,-0.1 v 0 m 1,-0.6 v 0 m -2.2,-3.4 c -2.6,0.8 -9.6,8.9 -6.3,10.6 -2.4,10.7 7.5,23.6 16.1,11.5 4.8,-7.5 1.3,-24.4 -9.8,-22.1"
                 id="path997"
                 inkscape:connector-curvature="0"
                 style="fill-rule:evenodd" />
              <path
                 d="m 258.6,282.1 c -5.4,0 -6.9,8.2 -2.1,10.4 8.7,3.2 10.7,-10.7 2.1,-10.4"
                 id="path999"
                 inkscape:connector-curvature="0"
                 style="fill-rule:evenodd" />
              <path
                 d="m 268,319.2 c 3.3,4.8 3.8,-8.3 14.6,-0.5 2.8,0.9 2.5,-5 0.1,-5.2 -5.6,-4.7 -15.6,-1.7 -14.7,5.7 z"
                 id="path1001"
                 inkscape:connector-curvature="0" />
            </svg>
          </g>
        </svg>
      </svg>
    </g>
  </svg>
</svg>
