<?xml version="1.0" encoding="UTF-8" standalone="no"?>
<!-- Created with Inkscape (http://www.inkscape.org/) -->

<svg
   xmlns:dc="http://purl.org/dc/elements/1.1/"
   xmlns:cc="http://creativecommons.org/ns#"
   xmlns:rdf="http://www.w3.org/1999/02/22-rdf-syntax-ns#"
   xmlns:svg="http://www.w3.org/2000/svg"
   xmlns="http://www.w3.org/2000/svg"
   xmlns:sodipodi="http://sodipodi.sourceforge.net/DTD/sodipodi-0.dtd"
   xmlns:inkscape="http://www.inkscape.org/namespaces/inkscape"
   height="91.546761mm"
   id="svg1311"
   inkscape:version="0.92.5 (2060ec1f9f, 2020-04-08)"
   sodipodi:docname="favicon.svg"
   sodipodi:version="0.32"
   width="109.86565mm"
   version="1.1">
  <metadata
     id="metadata1">
    <rdf:RDF>
      <cc:Work
         rdf:about="">
        <dc:description />
        <dc:subject>
          <rdf:Bag>
            <rdf:li>bubble</rdf:li>
            <rdf:li>talk</rdf:li>
            <rdf:li>cartoon</rdf:li>
            <rdf:li>balloon</rdf:li>
          </rdf:Bag>
        </dc:subject>
        <dc:publisher>
          <cc:Agent
             rdf:about="http://www.openclipart.org/">
            <dc:title>Steve Karg</dc:title>
          </cc:Agent>
        </dc:publisher>
        <dc:creator>
          <cc:Agent>
            <dc:title>Steve Karg</dc:title>
          </cc:Agent>
        </dc:creator>
        <dc:rights>
          <cc:Agent>
            <dc:title>Steve Karg</dc:title>
          </cc:Agent>
        </dc:rights>
        <dc:date>08-Apr-2006</dc:date>
        <dc:format>image/svg+xml</dc:format>
        <dc:type
           rdf:resource="http://purl.org/dc/dcmitype/StillImage" />
        <cc:license
           rdf:resource="http://web.resource.org/cc/PublicDomain" />
        <dc:language>en</dc:language>
        <dc:title></dc:title>
      </cc:Work>
      <cc:License
         rdf:about="http://web.resource.org/cc/PublicDomain">
        <cc:permits
           rdf:resource="http://web.resource.org/cc/Reproduction" />
        <cc:permits
           rdf:resource="http://web.resource.org/cc/Distribution" />
        <cc:permits
           rdf:resource="http://web.resource.org/cc/DerivativeWorks" />
      </cc:License>
    </rdf:RDF>
  </metadata>
  <defs
     id="defs1313" />
  <sodipodi:namedview
     bordercolor="#666666"
     borderopacity="1.0"
     gridtolerance="5.0000000mm"
     guidetolerance="5.0000000mm"
     id="base"
     inkscape:current-layer="layer1"
     inkscape:cx="-54.422799"
     inkscape:cy="218.17969"
     inkscape:document-units="mm"
     inkscape:grid-bbox="true"
     inkscape:grid-points="true"
     inkscape:guide-points="true"
     inkscape:pageopacity="0.0"
     inkscape:pageshadow="2"
     inkscape:window-height="1031"
     inkscape:window-width="1878"
     inkscape:window-x="42"
     inkscape:window-y="25"
     inkscape:zoom="1.1023383"
     pagecolor="#ffffff"
     showgrid="false"
     inkscape:showpageshadow="2"
     inkscape:pagecheckerboard="0"
     inkscape:deskcolor="#d1d1d1"
     inkscape:window-maximized="1"
     fit-margin-top="0"
     fit-margin-left="0"
     fit-margin-right="0"
     fit-margin-bottom="0">
    <inkscape:grid
       id="GridFromPre046Settings"
       type="xygrid"
       originx="-157.65137"
       originy="-125.10435"
       spacingx="5.0000000mm"
       spacingy="5.0000000mm"
       color="#3f3fff"
       empcolor="#3f3fff"
       opacity="0.15"
       empopacity="0.38"
       empspacing="5" />
  </sodipodi:namedview>
  <g
     id="layer1"
     inkscape:groupmode="layer"
     inkscape:label="Layer 1"
     transform="translate(-157.65137,-88.262194)">
    <path
       style="opacity:1;vector-effect:none;fill:none;fill-opacity:1;stroke:#000000;stroke-width:15;stroke-linecap:butt;stroke-linejoin:miter;stroke-miterlimit:4;stroke-dasharray:none;stroke-dashoffset:0;stroke-opacity:1"
       d="m 343.8476,95.845301 c -49.39861,1.315123 -101.24784,13.950439 -138.98333,47.454409 -29.57181,26.05473 -45.32016,67.80111 -37.85187,106.74424 9.6608,35.64052 41.13508,59.71237 71.94709,76.91141 52.63597,28.05972 112.20209,41.82664 171.52986,44.85086 6.02111,0.5508 13.00939,-0.77315 18.47207,1.42325 6.40115,17.40439 9.40899,35.86703 14.86636,53.53692 3.81692,0.2018 3.12443,-7.01743 4.83281,-9.57618 4.14578,-14.46774 7.5619,-29.13051 11.334,-43.69764 32.49717,-17.90594 61.89115,-41.82916 85.87305,-70.13722 14.77235,-21.43686 19.73638,-48.48483 19.51695,-74.15136 -1.08887,-40.39287 -27.88157,-75.95584 -61.45996,-96.4296 -44.19993,-27.31215 -97.07641,-37.631495 -148.5405,-36.983541 -3.84566,-0.02476 -7.69124,-0.0018 -11.53653,0.05445 z"
       id="path816"
       inkscape:connector-curvature="0" />
    <path
       style="opacity:1;vector-effect:none;fill:#ffffff;fill-opacity:1;stroke:#000000;stroke-width:13.60743713;stroke-linecap:butt;stroke-linejoin:miter;stroke-miterlimit:4;stroke-dasharray:none;stroke-dashoffset:0;stroke-opacity:1"
       d="M 195.65321,4.9312845 C 147.6639,5.261412 97.572071,14.707681 58.02496,43.397101 31.539125,62.541108 11.351237,91.39747 6.5989053,124.13099 c -2.9782648,19.28728 -2.0449709,40.10628 8.0913267,57.30365 17.302417,31.23498 48.673817,51.55526 80.1052,66.61022 50.291488,23.72427 105.680318,35.78929 161.111438,37.98454 4.49545,0.0246 9.05464,0.0878 13.44443,1.15877 3.57014,9.70957 5.42415,20.00775 9.08934,29.63515 4.59075,7.98074 17.46309,5.24039 19.18685,-3.54538 2.76496,-8.64562 4.62103,-17.54961 6.87282,-26.33606 31.01269,-18.06591 60.21105,-40.19619 83.26936,-67.87595 18.45308,-23.50389 23.33053,-54.89818 21.76332,-84.0394 C 407.18185,98.874608 383.29966,67.702493 354.76632,47.133831 316.05108,21.029707 269.60023,8.5268078 223.32897,5.7906896 214.11802,5.1712972 204.88491,4.8817492 195.65321,4.9312845 Z"
       id="path831"
       inkscape:connector-curvature="0"
       transform="translate(157.65137,88.262194)" />
  </g>
</svg>
