<?xml version="1.0" encoding="UTF-8" standalone="no"?>
<svg
   xmlns:dc="http://purl.org/dc/elements/1.1/"
   xmlns:cc="http://creativecommons.org/ns#"
   xmlns:rdf="http://www.w3.org/1999/02/22-rdf-syntax-ns#"
   xmlns:svg="http://www.w3.org/2000/svg"
   xmlns="http://www.w3.org/2000/svg"
   xmlns:sodipodi="http://sodipodi.sourceforge.net/DTD/sodipodi-0.dtd"
   xmlns:inkscape="http://www.inkscape.org/namespaces/inkscape"
   width="191.10818"
   height="519.49872"
   style="overflow:visible"
   version="1.1"
   id="svg284"
   sodipodi:docname="perso02.svg"
   inkscape:version="0.92.5 (2060ec1f9f, 2020-04-08)">
  <metadata
     id="metadata290">
    <rdf:RDF>
      <cc:Work
         rdf:about="">
        <dc:format>image/svg+xml</dc:format>
        <dc:type
           rdf:resource="http://purl.org/dc/dcmitype/StillImage" />
      </cc:Work>
    </rdf:RDF>
  </metadata>
  <defs
     id="defs288" />
  <sodipodi:namedview
     pagecolor="#ffffff"
     bordercolor="#666666"
     borderopacity="1"
     objecttolerance="10"
     gridtolerance="10"
     guidetolerance="10"
     inkscape:pageopacity="0"
     inkscape:pageshadow="2"
     inkscape:window-width="640"
     inkscape:window-height="480"
     id="namedview286"
     showgrid="false"
     inkscape:zoom="0.39333333"
     inkscape:cx="151.31714"
     inkscape:cy="260.6837"
     inkscape:window-x="42"
     inkscape:window-y="25"
     inkscape:window-maximized="0"
     inkscape:current-layer="svg284" />
  <svg
     viewBox="0 0 500 600"
     preserveAspectRatio="xMidYMin slice"
     width="500"
     height="600"
     style="overflow:visible"
     version="1.1"
     id="svg282"
     transform="translate(-98.682864,-41.184985)">
    <g
       id="g280">
      <svg
         width="500"
         height="600"
         style="overflow:visible"
         version="1.1"
         id="svg198">
        <svg
           viewBox="0 0 500 600"
           preserveAspectRatio="xMidYMin slice"
           width="500"
           height="600"
           style="overflow:visible"
           version="1.1"
           id="svg196">
          <g
             id="g194">
            <svg
               viewBox="0 0 500 600"
               version="1.1"
               id="svg192"
               width="100%"
               height="100%">
              <path
                 d="m 171.8,66.4 h -4.7 c -6.6,0.2 -13.1,1 -19.6,1.8 C 141,69 136,70 134,75.6 a 0.4,0.4 0 0 1 -0.1,0.3 c -0.1,0.3 -0.1,0.6 -0.2,0.9 -1.1,5 0.1,10.2 0.9,15 a 9.9,9.9 0 0 1 0.2,1.7 c 0.4,2.8 0.6,5.7 0.9,8.6 0.6,5.8 1.4,11.8 4.1,17.1 6.8,13.3 30.5,20 40.5,6.7 4.3,-5.8 6.3,-13.4 6.9,-20.5 0.3,-3 0.5,-5.9 0.6,-8.9 0.1,-3 0.1,-4.4 -0.1,-6.6 a 36.3,36.3 0 0 0 -2.9,-13.8 22.4,22.4 0 0 0 -3.5,-5.5 c -2.4,-2.7 -6,-3.8 -9.5,-4.2 z"
                 id="path146"
                 inkscape:connector-curvature="0"
                 style="fill:#e9af80;stroke:#000000;stroke-linecap:round;stroke-linejoin:round" />
              <path
                 d="m 130.9,100.1 a 4,4 0 0 1 -1.7,-2.4 11.2,11.2 0 0 1 -0.7,-4 5.1,5.1 0 0 1 1.6,-3.8 3.9,3.9 0 0 1 1,-0.8 6.3,6.3 0 0 1 2.4,-0.3 h 0.5 c 0.2,0.1 0.2,0.2 0.2,0.4 a 60.4,60.4 0 0 0 1.1,8.4 c 0.2,1 0.7,1.9 -0.4,2.5 a 4.3,4.3 0 0 1 -4,0 z"
                 id="path148"
                 inkscape:connector-curvature="0"
                 style="fill:#e9af80;stroke:#000000;stroke-linecap:round;stroke-linejoin:round" />
              <path
                 d="m 190.9,95.7 a 2.3,2.3 0 0 0 0.5,-1.1 11.9,11.9 0 0 0 0.3,-3.3 12.4,12.4 0 0 0 -0.4,-3.3 4.8,4.8 0 0 0 -2.2,-3.1 l -0.9,-0.2 c -0.2,0 -0.7,-0.1 -0.9,0.1 a 0.6,0.6 0 0 0 -0.1,0.4 l 0.3,5 c 0.1,1.4 0.1,2.7 0.1,4 0,1.3 0.2,1.8 0.9,2.1 a 2,2 0 0 0 2.4,-0.6 z"
                 id="path150"
                 inkscape:connector-curvature="0"
                 style="fill:#e9af80;stroke:#000000;stroke-linecap:round;stroke-linejoin:round" />
              <path
                 d="m 127.4,65.7 c -1.1,7.3 0,14.9 1.9,22.3 0.4,1.6 1.2,3.8 2.6,4.9 1.4,1.1 2.5,0.4 3,-1.1 0.5,-1.5 -0.5,-3 -0.7,-4.5 -0.3,-3.8 0,-8.3 3,-11 0.9,-1 1.9,-1.5 2.5,-2.7 0.6,-1.2 1.1,-2.3 2.5,-2.8 1.4,-0.5 3.2,-0.6 4.8,-1.1 1.6,-0.5 4.2,-1.4 6.5,-1.9 2.3,-0.5 3.6,0.3 5.5,0.5 1.9,0.2 4.7,-0.1 7.1,-0.1 2.4,0 5.9,-0.3 8.8,0.2 a 10.2,10.2 0 0 1 5.7,3.4 33.2,33.2 0 0 1 4.4,5.5 c 1.3,2.2 1.5,4.4 1.9,6.9 0,0.6 0.1,3.9 0.8,4.2 0.7,0.3 2,-3.3 2.2,-4 0.2,-0.7 0.7,-4.1 0.9,-6.1 0.3,-3.9 0.2,-8 -1.4,-11.7 -1.6,-3.7 -3.6,-11.2 -8.4,-14.4 -2.8,-1.9 -5.2,-5.2 -8.3,-6.4 -3.1,-1.2 -5.3,-1.1 -7.9,-1.9 -4.4,-1.3 -8.8,-2.7 -13.4,-2.7 a 18.6,18.6 0 0 0 -8.1,1.5 11.8,11.8 0 0 0 -3.8,3.2 c -0.7,1.1 -0.7,2.3 -1.6,3.3 -0.9,1 -2.6,0.9 -3.9,1.6 a 8.5,8.5 0 0 0 -2.9,3.6 35.7,35.7 0 0 0 -3.7,11.3 z"
                 id="path152"
                 inkscape:connector-curvature="0" />
              <ellipse
                 cx="181.39999"
                 cy="89.699997"
                 rx="3.4000001"
                 ry="2.7"
                 transform="rotate(-84.4,181.34716,89.779258)"
                 id="ellipse154" />
              <path
                 d="m 173.3,83.3 a 2.7,2.7 0 0 0 -2,0.9 2.8,2.8 0 0 0 -0.3,2.2 l 0.8,4.3 a 11.7,11.7 0 0 0 0.9,3.2 6.9,6.9 0 0 0 8.1,3.4 8.7,8.7 0 0 0 5,-6 c 0.7,-2.4 1.8,-8 -1,-8.7 -2.8,-0.7 -8.2,0.4 -11.5,0.7 z"
                 stroke-miterlimit="10"
                 id="path156"
                 inkscape:connector-curvature="0"
                 style="fill:none;stroke:#000000;stroke-miterlimit:10" />
              <path
                 d="m 150.3,85.1 c -0.7,0.1 -1.6,0.2 -2,0.8 a 2.4,2.4 0 0 0 -0.2,2.2 l 0.8,4.3 a 16.7,16.7 0 0 0 0.8,3.2 6.8,6.8 0 0 0 8.1,3.4 c 2.6,-0.9 4.3,-3.4 5.1,-6 0.8,-2.6 1.8,-8 -1,-8.7 -2.8,-0.7 -8.3,0.4 -11.6,0.8 z"
                 stroke-miterlimit="10"
                 id="path158"
                 inkscape:connector-curvature="0"
                 style="fill:none;stroke:#000000;stroke-miterlimit:10" />
              <path
                 d="m 170.7,85 -1.7,0.2 -5.4,0.5 h -0.1"
                 stroke-miterlimit="10"
                 id="path160"
                 inkscape:connector-curvature="0"
                 style="fill:none;stroke:#000000;stroke-miterlimit:10" />
              <path
                 d="M 147.9,88.2 132.5,87.9"
                 stroke-miterlimit="10"
                 id="path162"
                 inkscape:connector-curvature="0"
                 style="fill:none;stroke:#000000;stroke-linecap:round;stroke-miterlimit:10" />
              <path
                 d="m 167.9,108.3 a 9.4,9.4 0 0 0 3,-1.5 3.1,3.1 0 0 0 1.1,-0.9 c 1.1,-1.4 0.8,-3.5 0.2,-5.3 a 15.8,15.8 0 0 0 -1.6,-3.5"
                 stroke-miterlimit="10"
                 id="path164"
                 inkscape:connector-curvature="0"
                 style="fill:none;stroke:#000000;stroke-miterlimit:10" />
              <path
                 d="m 186.1,83.6 3.6,1.1"
                 stroke-miterlimit="10"
                 id="path166"
                 inkscape:connector-curvature="0"
                 style="fill:none;stroke:#000000;stroke-linecap:round;stroke-miterlimit:10" />
              <ellipse
                 cx="158.5"
                 cy="91.400002"
                 rx="3.4000001"
                 ry="2.7"
                 transform="rotate(-85.8,158.49196,91.429831)"
                 id="ellipse168" />
              <path
                 d="m 156.5,114.4 a 6.8,6.8 0 0 1 1.7,-2.1 c 3,-2.6 8.3,-1.1 11.9,-1.2 3.6,-0.1 4.6,-1.1 7,-1.3 2.4,-0.2 4.4,0.6 5.6,3.4 a 11.6,11.6 0 0 1 -0.7,10.1 c -3.8,6.7 -12.2,10.4 -19.7,9.8 h -0.6 c -2.4,-0.3 -4,-0.6 -5.4,-2.6 a 11.7,11.7 0 0 1 -2.1,-6.5 17.5,17.5 0 0 1 2.3,-9.6 z m 9.5,3.9 a 6.7,6.7 0 0 0 -0.7,3.1 3.3,3.3 0 0 0 0.7,2.7 5.1,5.1 0 0 0 2.7,1.2 l 2,0.4 a 13.1,13.1 0 0 0 3.4,-0.3 5.4,5.4 0 0 0 2.1,-0.8 3.1,3.1 0 0 0 0.8,-2.6 c -0.2,-2.3 -0.7,-4.8 -2.5,-6.3 a 5.7,5.7 0 0 0 -4,-0.9 6.9,6.9 0 0 0 -3.6,2.1 5.5,5.5 0 0 0 -0.9,1.4 z"
                 id="path170"
                 inkscape:connector-curvature="0"
                 style="opacity:0.45" />
              <path
                 d="m 147.8,81.5 a 8,8 0 0 1 2,-2.1 9.8,9.8 0 0 1 4.4,-1.6 36.2,36.2 0 0 1 4.7,-0.2 c 0.6,0 1.9,0 2.1,0.8 a 1.2,1.2 0 0 1 -0.1,0.8 c -0.1,0.3 -0.2,0.7 -0.6,0.8 h -0.6 a 12.8,12.8 0 0 0 -5.5,0 l -1.7,0.4 -1.8,0.9 a 7.4,7.4 0 0 0 -2.7,1.9 l -0.3,0.4 c -0.2,0.1 -0.4,0.2 -0.5,0.1 -0.1,-0.1 0.4,-1.9 0.6,-2.2 z"
                 id="path172"
                 inkscape:connector-curvature="0" />
              <path
                 d="m 183.8,79.6 a 5,5 0 0 0 -1.9,-1.9 9.4,9.4 0 0 0 -4.2,-1.3 22.6,22.6 0 0 0 -4.5,0.2 c -0.6,0 -1.8,0.2 -2,1 a 1.2,1.2 0 0 0 0.1,0.8 1.1,1.1 0 0 0 0.6,0.7 h 0.6 a 13.2,13.2 0 0 1 5.2,-0.5 4.5,4.5 0 0 1 1.6,0.3 l 1.8,0.7 a 5.2,5.2 0 0 1 2.6,1.7 l 0.4,0.4 a 0.3,0.3 0 0 0 0.4,0 c 0.4,-0.4 -0.5,-1.9 -0.7,-2.1 z"
                 id="path174"
                 inkscape:connector-curvature="0" />
              <path
                 d="m 173.1,115.4 1,0.5 a 5.3,5.3 0 0 1 1.8,2.8 12,12 0 0 1 0.6,3.3 2,2 0 0 1 -0.1,1.3 2,2 0 0 1 -1.4,1.1 10.5,10.5 0 0 1 -7.4,0.2 4.6,4.6 0 0 1 -1.3,-0.8 3.9,3.9 0 0 1 -0.6,-1.5 7.3,7.3 0 0 1 1.6,-5.1 6.4,6.4 0 0 1 3.1,-2 5,5 0 0 1 2.7,0.2 z"
                 id="path176"
                 inkscape:connector-curvature="0"
                 style="opacity:0.5;fill:#5e2f2f" />
              <path
                 d="m 172.5,116.8 a 2.6,2.6 0 0 1 1.1,0.7 6.4,6.4 0 0 1 1.3,4.2 2.4,2.4 0 0 1 -0.5,1.4 2.3,2.3 0 0 1 -1.2,0.6 6.1,6.1 0 0 1 -4.4,-0.1 1.8,1.8 0 0 1 -0.9,-0.6 c -0.8,-0.7 -0.7,-1.9 -0.5,-3 a 4.7,4.7 0 0 1 2,-2.8 3.8,3.8 0 0 1 3.1,-0.4 z"
                 id="path178"
                 inkscape:connector-curvature="0"
                 style="fill:#5e2f2f" />
              <g
                 id="g190"
                 style="opacity:0.2">
                <path
                   d="m 184.8,69.4 a 8.3,8.3 0 0 0 1.1,-7.5 13.8,13.8 0 0 0 -4.7,-6.3"
                   id="path180"
                   inkscape:connector-curvature="0"
                   style="fill:none;stroke:#ffffff;stroke-linecap:round;stroke-linejoin:round" />
                <path
                   d="m 174.5,67.5 a 16.5,16.5 0 0 0 2.8,-6 c 1.9,-7.6 -3.6,-13.8 -4.3,-14.7"
                   id="path182"
                   inkscape:connector-curvature="0"
                   style="fill:none;stroke:#ffffff;stroke-linecap:round;stroke-linejoin:round" />
                <path
                   d="m 165.3,65 c 2.3,-1.5 5.1,-3.5 5.2,-6.6 V 58 a 14.8,14.8 0 0 0 -4.1,-8.6 16.3,16.3 0 0 0 -8.4,-4.6"
                   id="path184"
                   inkscape:connector-curvature="0"
                   style="fill:none;stroke:#ffffff;stroke-linecap:round;stroke-linejoin:round" />
                <path
                   d="M 154.6,63.1 A 14.3,14.3 0 0 0 140.3,56.5"
                   id="path186"
                   inkscape:connector-curvature="0"
                   style="fill:none;stroke:#ffffff;stroke-linecap:round;stroke-linejoin:round" />
                <path
                   d="m 147.3,67.5 a 13.4,13.4 0 0 0 -2.8,-1.8 20.5,20.5 0 0 0 -3.1,-1.3 16.5,16.5 0 0 0 -6.9,-1.2 6.3,6.3 0 0 0 -2.7,1"
                   id="path188"
                   inkscape:connector-curvature="0"
                   style="fill:none;stroke:#ffffff;stroke-linecap:round;stroke-linejoin:round" />
              </g>
            </svg>
          </g>
        </svg>
      </svg>
      <svg
         width="500"
         height="600"
         style="overflow:visible"
         version="1.1"
         id="svg278">
        <svg
           viewBox="0 0 500 600"
           preserveAspectRatio="xMidYMin slice"
           width="500"
           height="600"
           style="overflow:visible"
           version="1.1"
           id="svg276">
          <g
             id="g274">
            <svg
               viewBox="0 0 500 600"
               version="1.1"
               id="svg272"
               width="100%"
               height="100%">
              <g
                 id="g202"
                 style="opacity:0.92000002">
                <path
                   d="m 104.9,525.2 -2.8,8.4 c -1.5,4.4 -3.1,8.9 -2.9,13.5 0.2,4.6 2.3,9.5 6.4,11.6 4.1,2.1 5.8,1.4 8.8,1.3 l 8.7,-0.2 a 12.1,12.1 0 0 0 5,-1 7.4,7.4 0 0 0 3.2,-5.3 19.2,19.2 0 0 0 -0.5,-6.3 137.9,137.9 0 0 0 -7,-23.5 c -0.6,-1.6 -1.4,-3.2 -3.1,-3.8 a 10.5,10.5 0 0 0 -3.1,-0.3 49.2,49.2 0 0 0 -7.6,0.9 9.8,9.8 0 0 0 -3.8,1.5 3.1,3.1 0 0 0 -1.3,3.2 z"
                   id="path200"
                   inkscape:connector-curvature="0"
                   style="stroke:#000000;stroke-linecap:round;stroke-linejoin:round" />
              </g>
              <g
                 id="g224"
                 style="opacity:0.3">
                <path
                   d="m 128.8,550.9 0.3,0.8 a 45.1,45.1 0 0 0 -14.6,-2.3 28.4,28.4 0 0 0 -11.4,3"
                   id="path204"
                   inkscape:connector-curvature="0"
                   style="fill:none;stroke:#ffffff;stroke-linecap:round;stroke-linejoin:round" />
                <path
                   d="m 121.5,535.1 a 13.5,13.5 0 0 0 -6.6,-0.6 35.5,35.5 0 0 0 -6.6,1.7"
                   id="path206"
                   inkscape:connector-curvature="0"
                   style="fill:none;stroke:#ffffff;stroke-linecap:round;stroke-linejoin:round" />
                <path
                   d="m 121.7,540.2 a 11.6,11.6 0 0 0 -6.9,-0.8 26.6,26.6 0 0 0 -6.7,2.3"
                   id="path208"
                   inkscape:connector-curvature="0"
                   style="fill:none;stroke:#ffffff;stroke-linecap:round;stroke-linejoin:round" />
                <path
                   d="m 121.8,544.8 c 0,-0.1 0.3,0 0.2,0.1 h -0.4 c -4.5,-1.3 -9.4,-0.3 -13.8,1.6"
                   id="path210"
                   inkscape:connector-curvature="0"
                   style="fill:none;stroke:#ffffff;stroke-linecap:round;stroke-linejoin:round" />
                <path
                   d="m 107.1,535 a 1.5,1.5 0 0 1 1,2.8 1.5,1.5 0 0 1 -1.9,-2.2 1.4,1.4 0 0 1 1.6,-0.5"
                   id="path212"
                   inkscape:connector-curvature="0"
                   style="fill:none;stroke:#ffffff;stroke-linecap:round;stroke-linejoin:round" />
                <path
                   d="m 106.1,540.5 a 3.7,3.7 0 0 1 1.8,0.1 c 0.1,0.1 0.3,0.1 0.3,0.3 a 0.6,0.6 0 0 1 0.1,0.4 2.3,2.3 0 0 1 -0.4,2 2.1,2.1 0 0 1 -2.7,-0.1 0.8,0.8 0 0 1 -0.5,-0.5 1.7,1.7 0 0 1 0.1,-0.7 3.9,3.9 0 0 1 0.6,-1.1 0.9,0.9 0 0 1 1.1,-0.3"
                   id="path214"
                   inkscape:connector-curvature="0"
                   style="fill:none;stroke:#ffffff;stroke-linecap:round;stroke-linejoin:round" />
                <path
                   d="m 106.4,545.4 a 1.4,1.4 0 0 1 1.6,0.5 1.2,1.2 0 0 1 -0.3,1.6 1.1,1.1 0 0 1 -0.7,0.3 1.7,1.7 0 0 1 -1.5,-0.5 1.2,1.2 0 0 1 -0.1,-1.4 1.1,1.1 0 0 1 1.4,-0.3"
                   id="path216"
                   inkscape:connector-curvature="0"
                   style="fill:none;stroke:#ffffff;stroke-linecap:round;stroke-linejoin:round" />
                <path
                   d="m 122,544.1 c 0.5,-0.2 1.1,-0.5 1.6,-0.2 0.5,0.3 0.6,0.9 0.7,1.5 l 0.2,1 a 0.9,0.9 0 0 1 -0.1,0.5 0.5,0.5 0 0 1 -0.4,0.2 4,4 0 0 1 -1.5,0.3 1.6,1.6 0 0 1 -1.3,-0.9 1.4,1.4 0 0 1 0,-0.9 6.1,6.1 0 0 1 0.7,-1.4 h 0.3"
                   id="path218"
                   inkscape:connector-curvature="0"
                   style="fill:none;stroke:#ffffff;stroke-linecap:round;stroke-linejoin:round" />
                <path
                   d="m 121.9,539 a 1.3,1.3 0 0 1 1.1,-0.6 1.5,1.5 0 0 1 1.2,1.8 1.6,1.6 0 0 1 -1.8,1.2 0.9,0.9 0 0 1 -0.6,-0.4 0.8,0.8 0 0 1 0.1,-0.9 l 0.5,-1.2"
                   id="path220"
                   inkscape:connector-curvature="0"
                   style="fill:none;stroke:#ffffff;stroke-linecap:round;stroke-linejoin:round" />
                <path
                   d="m 121.4,534.4 c 0.7,-0.3 0.9,-1.7 1.9,-1.1 1,0.6 0.5,0.5 0.6,0.8 a 2.2,2.2 0 0 1 -0.1,1.8 1.5,1.5 0 0 1 -2.8,-0.4 c -0.1,-0.3 0,-1.2 0.6,-1.1"
                   id="path222"
                   inkscape:connector-curvature="0"
                   style="fill:none;stroke:#ffffff;stroke-linecap:round;stroke-linejoin:round" />
              </g>
              <g
                 id="g228"
                 style="opacity:0.92000002">
                <path
                   d="m 222.9,529.1 a 8.8,8.8 0 0 1 2.4,1.1 5.3,5.3 0 0 1 1.8,4.8 c -0.4,3.8 -3.7,6.7 -7.3,7.7 -3.6,1 -7.5,0.7 -11.2,0.3 l -32.4,-3.4 a 15.1,15.1 0 0 1 -5.2,-1.1 c -4.4,-2 -6.2,-7.3 -6.5,-12.2 -0.3,-4.9 0.6,-9.8 4.4,-12.5 3.8,-2.7 5.6,-2 8.5,-2.2 2.9,-0.2 10.3,-2.2 13.6,-0.6 3.3,1.6 3.4,5.5 5.9,7.5 7.4,5.7 17.4,7.6 26,10.6 z"
                   id="path226"
                   inkscape:connector-curvature="0"
                   style="stroke:#000000;stroke-linecap:round;stroke-linejoin:round" />
              </g>
              <g
                 id="g246"
                 style="opacity:0.3">
                <path
                   d="m 218.2,528.5 c -0.2,-0.5 -0.9,-0.4 -1.3,-0.2 a 15,15 0 0 0 -8.1,8.5"
                   id="path230"
                   inkscape:connector-curvature="0"
                   style="fill:none;stroke:#ffffff;stroke-linecap:round;stroke-linejoin:round" />
                <path
                   d="m 210.7,525.7 a 16.4,16.4 0 0 0 -4.3,5.5 c 0.1,0.1 0.3,0 0.3,-0.2"
                   id="path232"
                   inkscape:connector-curvature="0"
                   style="fill:none;stroke:#ffffff;stroke-linecap:round;stroke-linejoin:round" />
                <path
                   d="m 206.9,523.8 a 9.7,9.7 0 0 0 -3,4.9"
                   id="path234"
                   inkscape:connector-curvature="0"
                   style="fill:none;stroke:#ffffff;stroke-linecap:round;stroke-linejoin:round" />
                <path
                   d="m 203.1,522.5 a 10.1,10.1 0 0 0 -2.5,4.1 c 0,0 0.2,0 0.1,-0.1"
                   id="path236"
                   inkscape:connector-curvature="0"
                   style="fill:none;stroke:#ffffff;stroke-linecap:round;stroke-linejoin:round" />
                <path
                   d="m 223.9,539.8 a 6.4,6.4 0 0 1 -3.6,1.1 51.7,51.7 0 0 1 -6.8,0.1 c -2.1,-0.1 -4.2,-0.4 -6.3,-0.6 l -17.1,-1.8 a 59.7,59.7 0 0 1 -6.1,-0.8 c -2.1,-0.3 -4.1,-0.8 -6.1,-1 -4.1,-0.5 -8.5,-0.4 -11.6,-3 q -0.3,-0.1 -0.3,-0.3 c 0.1,-0.2 0.4,-0.2 0.3,0"
                   id="path238"
                   inkscape:connector-curvature="0"
                   style="fill:none;stroke:#ffffff;stroke-linecap:round;stroke-linejoin:round" />
                <path
                   d="m 206.5,531.4 h 0.3 a 2.5,2.5 0 0 1 0.4,1.7 1.5,1.5 0 0 1 -2.9,0 2,2 0 0 1 1.5,-2 c 0.3,0 0.7,0.1 0.7,0.4 a 0.4,0.4 0 0 1 -0.5,-0.2"
                   id="path240"
                   inkscape:connector-curvature="0"
                   style="fill:none;stroke:#ffffff;stroke-linecap:round;stroke-linejoin:round" />
                <path
                   d="m 203.7,528.4 a 0.4,0.4 0 0 1 0.5,0.2 0.7,0.7 0 0 1 0.2,0.6 1.7,1.7 0 0 1 -0.4,1.2 1.1,1.1 0 0 1 -1.3,-1.7 1.6,1.6 0 0 1 1.5,-0.2"
                   id="path242"
                   inkscape:connector-curvature="0"
                   style="fill:none;stroke:#ffffff;stroke-linecap:round;stroke-linejoin:round" />
                <path
                   d="m 199.8,526.6 c 0.1,-0.2 0.4,-0.2 0.6,-0.2 l 0.4,0.4 a 1.5,1.5 0 0 1 0.2,1.3 1,1 0 0 1 -0.4,0.5 1.2,1.2 0 1 1 -0.2,-2.1"
                   id="path244"
                   inkscape:connector-curvature="0"
                   style="fill:none;stroke:#ffffff;stroke-linecap:round;stroke-linejoin:round" />
              </g>
              <path
                 d="m 271.2,184.5 c 0.4,0.3 12.3,12.8 12.3,12.8 l -1.7,2.7 c 0,0 -14.3,4 -14.4,3.9 -0.1,-0.1 -1.8,-15.4 -1.8,-15.4 l 1.8,-3.5 1.9,-1 z"
                 id="path248"
                 inkscape:connector-curvature="0"
                 style="fill:#e9af80;stroke:#000000;stroke-linecap:round;stroke-linejoin:round" />
              <path
                 d="m 274,195.8 a 2.2,2.2 0 0 0 2.8,0.7 l 6.1,-3.8 a 2.6,2.6 0 0 0 1.1,-3.7 2.7,2.7 0 0 0 -3.8,-0.4 l -5.8,4.4 a 2.2,2.2 0 0 0 -0.4,2.8 z"
                 id="path250"
                 inkscape:connector-curvature="0"
                 style="fill:#e9af80;stroke:#000000;stroke-linecap:round;stroke-linejoin:round" />
              <path
                 d="m 271.4,193.2 a 2.2,2.2 0 0 0 3,0.1 l 6.4,-5.2 c 1.4,-1.1 1.8,-3 0.8,-4.1 -1,-1.1 -2.9,-0.9 -4.2,0.4 l -5.9,5.7 a 2.3,2.3 0 0 0 -0.1,3.1 z"
                 id="path252"
                 inkscape:connector-curvature="0"
                 style="fill:#e9af80;stroke:#000000;stroke-linecap:round;stroke-linejoin:round" />
              <path
                 d="m 270.6,184.2 c 5.1,-7.3 13,-14.3 15.3,-16.4 2.3,-2.1 6.5,-1.1 -0.4,6.4 -6.9,7.5 -5.2,5.8 -9.6,11.3 -4.4,5.5 -5.1,2.7 -5.1,2.7 0,0 -0.9,-3.1 -0.2,-4 z"
                 id="path254"
                 inkscape:connector-curvature="0"
                 style="fill:#e9af80;stroke:#000000;stroke-linecap:round;stroke-linejoin:round" />
              <path
                 d="m 283.4,197.6 a 28.3,28.3 0 0 1 -11.9,11.6 c -3.1,1.6 -4.3,1.2 -4.3,1.2 l -9.2,8 -7.1,-11 9.2,-5.9 c 0,0 -2.1,-9.7 0.5,-13.8 a 17.4,17.4 0 0 1 6.7,-6.2 c 2.4,-1.3 3.1,-1.1 4.9,0.6 1.8,1.7 6.4,6.3 3.9,7.7 -2.5,1.4 -7.1,-1.4 -8.1,-4 l -1.6,1.4 a 65.9,65.9 0 0 1 3.4,5.7 9.6,9.6 0 0 1 -1.8,9.8 c 1.4,-1.5 4.4,-1.9 6.2,-1.9 a 13.1,13.1 0 0 0 9.2,-3.2 z"
                 id="path256"
                 inkscape:connector-curvature="0"
                 style="fill:#e9af80;stroke:#000000;stroke-linecap:round;stroke-linejoin:round" />
              <path
                 d="m 275.3,199.4 a 1.9,1.9 0 0 0 2.4,1 l 6.3,-2.9 a 2.7,2.7 0 0 0 1.4,-3.4 2.4,2.4 0 0 0 -3.5,-0.8 l -5.9,3.5 a 1.9,1.9 0 0 0 -0.7,2.6 z"
                 id="path258"
                 inkscape:connector-curvature="0"
                 style="fill:#e9af80;stroke:#000000;stroke-linecap:round;stroke-linejoin:round" />
              <path
                 d="m 162.1,377.6 c -7.2,23.6 -13.6,47.5 -18.8,71.6 -5.2,24.1 -11.3,48.2 -11,71.8 a 3.2,3.2 0 0 1 -0.3,1.7 3.5,3.5 0 0 1 -2.4,1.2 91.9,91.9 0 0 1 -29.6,-0.4 c -3,-0.5 12,-99.4 13.5,-108.5 3.8,-22.5 9,-44.8 11.8,-67.4 2.8,-22.6 6.7,-47.9 7.4,-72.1 a 4.2,4.2 0 0 1 0.3,-1.3 2.4,2.4 0 0 1 0.9,-0.6 c 5,-2.7 10.2,-1.8 15.6,-1.9 H 169 c 12,0.2 24,0.6 36,0.6 2.1,0.1 4.5,0.2 6,1.7 1.5,1.5 1.7,3.4 1.9,5.3 1.9,18.4 3.4,37.1 2,55.6 -1.6,20.9 -4.3,41.6 -7.1,62.3 -1.3,10.1 -3,20.1 -3.9,30.2 -2.2,24.2 -4.3,48.2 -5.1,72.4 a 95.5,95.5 0 0 0 -0.1,10.7 c 0.2,1.8 1,3.3 -0.1,4.9 -2.9,3.9 -11,3.2 -15.2,3.3 -5.9,0.1 -14,1.8 -19.1,-1.8 -2,-1.4 -0.7,-18.1 -0.7,-21.1 -0.1,-7.9 0,-15.8 0.2,-23.8 1.5,-48 7.1,-96.6 11.2,-144.7"
                 id="path260"
                 inkscape:connector-curvature="0"
                 style="fill-rule:evenodd" />
              <path
                 d="m 117.5,330.6 c 0,0.2 0.1,0.5 0.1,0.7 0.3,2 0.8,4 1.2,6 l 2.4,11.4 c 0.7,3 1.8,5.7 4.3,7.7 a 24.9,24.9 0 0 0 6.3,3.2 5.7,5.7 0 0 0 2.6,0.4 c 3.4,-0.6 0.5,-4.3 -0.8,-5.5 l -3.4,-2.6 c -1.1,-0.9 -2.6,-1.9 -2.5,-3.4 l 0.7,-13.3 c 1.1,1.1 1.3,2.8 1.6,4.3 a 26.4,26.4 0 0 0 1.3,4.6 4.7,4.7 0 0 0 1.5,2.4 2,2 0 0 0 2.6,-0.3 3,3 0 0 0 0.3,-1.6 l -0.2,-6.8 a 34.3,34.3 0 0 0 -0.5,-5.6 22.6,22.6 0 0 0 -5.2,-9.6 6.5,6.5 0 0 0 -1.6,-1.3 3.6,3.6 0 0 0 -2.3,-0.3 21.9,21.9 0 0 0 -7.2,0.8 c -1.8,0.6 -1.8,1.3 -1.7,3.1 a 54.8,54.8 0 0 0 0.5,5.7 z"
                 id="path262"
                 inkscape:connector-curvature="0"
                 style="fill:#e9af80;stroke:#1a1a1a;stroke-linecap:round;stroke-linejoin:round" />
              <path
                 d="m 209.3,192.6 c -0.5,9.1 -0.6,18.2 -0.5,27.4 0.1,4.6 0.3,9.2 0.5,13.7 a 121.6,121.6 0 0 1 0.2,13.5 c 0,1.1 -0.2,2.3 -0.2,3.5 a 25.9,25.9 0 0 0 0.5,4.7 c 0.5,3 0.7,6 1.4,9 0.7,3 1.8,5.8 0.9,8.8 -2.6,8.2 -15,9 -22.3,9.5 a 121.6,121.6 0 0 1 -13.5,0 l -22.6,-1 c -2.6,-0.1 -6.7,0.7 -10.3,0.7 h -1.7 a 7.4,7.4 0 0 1 -4.3,-1.4 4.7,4.7 0 0 1 -1.3,-1.5 13.1,13.1 0 0 1 -3.3,-4.2 15.3,15.3 0 0 1 -0.9,-6.4 431.7,431.7 0 0 0 -4.3,-54.2 19.4,19.4 0 0 1 -0.2,2.4 c -0.1,1.4 -0.2,2.9 -0.2,4.4 0,1.5 0.2,4.5 0.2,6.7 0.5,14.7 -0.8,29.5 0.9,44.2 1.4,12.9 4.4,25.7 4.9,38.5 a 6.8,6.8 0 0 1 0.1,2.8 c 0,1.9 0,3.8 -0.1,5.6 -0.1,1.8 -0.3,3.3 -1.4,4.3 a 6.1,6.1 0 0 1 -3.7,1.5 l -10,1.3 a 4.9,4.9 0 0 1 -2.7,-0.3 4.4,4.4 0 0 1 -1.7,-3.2 c -3.9,-16.7 -7.7,-33.5 -10.3,-50.4 -2,-12.7 -1.6,-24.7 -1.5,-37.1 -0.1,-3.8 -0.2,-7.5 -0.2,-11.3 -0.1,-8.7 0.1,-17.4 0.5,-26.2 l 0.3,-12.2 c 0.1,-5.3 0.4,-10.8 2,-15.8 a 26.2,26.2 0 0 1 2.7,-6.4 c 4.4,-7.1 12.7,-10.3 20,-13.9 5.3,-2.6 10.7,-5.1 16.7,-6.2 a 5.7,5.7 0 0 1 1.3,0 4.8,4.8 0 0 1 2,1.5 119.6,119.6 0 0 0 10.9,11.6 c 1.7,1.6 5.8,6.2 8.3,5.6 2.5,-0.6 5.8,-5.1 8,-6.8 a 7.9,7.9 0 0 1 3.9,-2.1 c 1.8,-0.3 3.5,0.4 5.2,0.2 1.7,-0.2 5.2,-1.7 5,-1.9 l -5.5,-5.3 a 29.9,29.9 0 0 1 -2.9,-3.2 16.7,16.7 0 0 0 -2.3,-2.3 15.9,15.9 0 0 1 -4.6,-6 4.2,4.2 0 0 1 -0.3,-2.7 c -0.2,0.4 17.4,11.4 19.9,12.4 6.4,2.4 13.4,4.4 18.7,8.9 5.3,4.5 6.5,12.4 7.7,18.9 2.8,15.3 6.3,30.6 7.9,46 1.5,0.3 2.9,-0.6 4.2,-1.4 l 18.6,-12.2 c 1,-0.7 2.4,-1.4 3.6,-0.9 l 1.1,1 7.2,8.5 c 7.3,8.6 -10.1,20.2 -16.1,25.1 l -9.5,7.7 c -6,4.9 -14.4,12.7 -20.7,4.2 a 32.8,32.8 0 0 1 -6,-14.4"
                 stroke-miterlimit="10"
                 id="path264"
                 inkscape:connector-curvature="0"
                 style="fill:#8702bb;stroke:#000000;stroke-miterlimit:10" />
              <path
                 d="m 181.7,143.5 a 19.6,19.6 0 0 1 4.2,3.9 5.5,5.5 0 0 1 1.2,2.7 c 0.2,1.8 -0.9,3.4 -2.1,4.7 a 13.9,13.9 0 0 1 -6.3,3.7 c -2.1,0.5 -4.3,0.7 -6.5,1.2 a 21.2,21.2 0 0 0 -7.4,3.6 3.2,3.2 0 0 1 -2.4,0.9 4.7,4.7 0 0 1 -0.9,-0.6 c -2.8,-2.2 -5.9,-5.1 -9.2,-6.6 -3.3,-1.5 -5.9,-1 -8.3,-3.3 -2.4,-2.3 -5.7,-5.8 -5.1,-9.3 a 8.5,8.5 0 0 1 0.9,-2.2 c 1.7,-3 4.5,-5.2 7.4,-7.1 a 6.9,6.9 0 0 0 3.8,-5.7 c 4.9,2.6 10.5,3 15.9,3.3 1.8,0 3.6,0.1 5.1,-0.8 -0.2,5.3 6,8.8 9.7,11.6 z"
                 id="path266"
                 inkscape:connector-curvature="0"
                 style="fill:#e9af80;stroke:#000000;stroke-linecap:round;stroke-linejoin:round" />
              <path
                 d="m 167.8,145.7 a 1.6,1.6 0 0 1 -2.6,0.6 c -0.2,-0.1 -0.3,-0.4 -0.5,-0.6"
                 id="path268"
                 inkscape:connector-curvature="0"
                 style="fill:none;stroke:#1a1a1a;stroke-linecap:round;stroke-linejoin:round" />
              <path
                 d="m 180,145.5 c -0.1,1.6 -1.3,2.7 -2.6,3.9 l -4.8,4.5 -6.6,6.1 c -1.4,1.3 -1.8,1.5 -3.4,0.4 a 28.5,28.5 0 0 1 -3.3,-2.5 37.2,37.2 0 0 1 -4.1,-4.8 23.2,23.2 0 0 1 -3.9,-5.4 19.5,19.5 0 0 1 -2.3,-7.9 20.5,20.5 0 0 1 0.6,-7.8 c -0.6,0.2 -1.3,1.1 -1.8,1.6 a 24.8,24.8 0 0 1 -2.6,1.9 c -1.8,1 -3.7,1.8 -5.4,2.9 a 26.2,26.2 0 0 1 -5.8,2.9 1.5,1.5 0 0 0 -0.7,0.5 1.9,1.9 0 0 0 -0.2,0.7 c -0.4,3.5 -1.2,6.9 -0.6,10.3 0.1,0.5 1.1,5.6 0.7,5.8 a 25.5,25.5 0 0 1 16.1,-1.6 c 5.6,1.3 9.8,4.7 13.7,8.5 l 3.1,-2.8 c 6.2,-4.4 12.9,0.4 18.7,3 a 17.8,17.8 0 0 0 1.3,-4.5 128.4,128.4 0 0 1 5,-13.5 c 0.7,-1.7 1.3,-3 -0.3,-4.4 -1.6,-1.4 -2.7,-1.6 -4,-2.4 l -7.8,-4.5 c -2.5,-1.5 -4.8,-3.3 -7.5,-4.4 -0.4,1.8 0.5,4 1.5,5.4 a 19.2,19.2 0 0 0 4.6,4.4 c 1.3,1 2.4,1.9 2.4,3.7 z"
                 id="path270"
                 inkscape:connector-curvature="0"
                 style="fill:#ffffff;stroke:#000000;stroke-linecap:round;stroke-linejoin:round" />
            </svg>
          </g>
        </svg>
      </svg>
    </g>
  </svg>
</svg>
